<?xml version="1.0" encoding="utf-8"?>
<!DOCTYPE eagle SYSTEM "eagle.dtd">
<eagle version="8.1.0">
<drawing>
<settings>
<setting alwaysvectorfont="no"/>
<setting verticaltext="up"/>
</settings>
<grid distance="0.02" unitdist="inch" unit="inch" style="lines" multiple="1" display="no" altdistance="0.015" altunitdist="inch" altunit="inch"/>
<layers>
<layer number="1" name="Top" color="4" fill="1" visible="yes" active="yes"/>
<layer number="2" name="Route2" color="1" fill="3" visible="no" active="no"/>
<layer number="3" name="Route3" color="4" fill="3" visible="no" active="no"/>
<layer number="4" name="Route4" color="1" fill="4" visible="no" active="no"/>
<layer number="5" name="Route5" color="4" fill="4" visible="no" active="no"/>
<layer number="6" name="Route6" color="1" fill="8" visible="no" active="no"/>
<layer number="7" name="Route7" color="4" fill="8" visible="no" active="no"/>
<layer number="8" name="Route8" color="1" fill="2" visible="no" active="no"/>
<layer number="9" name="Route9" color="4" fill="2" visible="no" active="no"/>
<layer number="10" name="Route10" color="1" fill="7" visible="no" active="no"/>
<layer number="11" name="Route11" color="4" fill="7" visible="no" active="no"/>
<layer number="12" name="Route12" color="1" fill="5" visible="no" active="no"/>
<layer number="13" name="Route13" color="4" fill="5" visible="no" active="no"/>
<layer number="14" name="Route14" color="1" fill="6" visible="no" active="no"/>
<layer number="15" name="Route15" color="4" fill="6" visible="no" active="no"/>
<layer number="16" name="Bottom" color="1" fill="1" visible="yes" active="yes"/>
<layer number="17" name="Pads" color="2" fill="1" visible="yes" active="yes"/>
<layer number="18" name="Vias" color="2" fill="1" visible="yes" active="yes"/>
<layer number="19" name="Unrouted" color="6" fill="1" visible="yes" active="yes"/>
<layer number="20" name="Dimension" color="15" fill="1" visible="yes" active="yes"/>
<layer number="21" name="tPlace" color="7" fill="1" visible="yes" active="yes"/>
<layer number="22" name="bPlace" color="7" fill="1" visible="yes" active="yes"/>
<layer number="23" name="tOrigins" color="15" fill="1" visible="yes" active="yes"/>
<layer number="24" name="bOrigins" color="15" fill="1" visible="yes" active="yes"/>
<layer number="25" name="tNames" color="7" fill="1" visible="yes" active="yes"/>
<layer number="26" name="bNames" color="7" fill="1" visible="yes" active="yes"/>
<layer number="27" name="tValues" color="7" fill="1" visible="yes" active="yes"/>
<layer number="28" name="bValues" color="7" fill="1" visible="yes" active="yes"/>
<layer number="29" name="tStop" color="7" fill="3" visible="no" active="yes"/>
<layer number="30" name="bStop" color="7" fill="6" visible="no" active="yes"/>
<layer number="31" name="tCream" color="7" fill="4" visible="no" active="yes"/>
<layer number="32" name="bCream" color="7" fill="5" visible="no" active="yes"/>
<layer number="33" name="tFinish" color="6" fill="3" visible="no" active="yes"/>
<layer number="34" name="bFinish" color="6" fill="6" visible="no" active="yes"/>
<layer number="35" name="tGlue" color="7" fill="4" visible="no" active="yes"/>
<layer number="36" name="bGlue" color="7" fill="5" visible="no" active="yes"/>
<layer number="37" name="tTest" color="7" fill="1" visible="no" active="yes"/>
<layer number="38" name="bTest" color="7" fill="1" visible="no" active="yes"/>
<layer number="39" name="tKeepout" color="4" fill="11" visible="yes" active="yes"/>
<layer number="40" name="bKeepout" color="1" fill="11" visible="yes" active="yes"/>
<layer number="41" name="tRestrict" color="4" fill="10" visible="yes" active="yes"/>
<layer number="42" name="bRestrict" color="1" fill="10" visible="yes" active="yes"/>
<layer number="43" name="vRestrict" color="2" fill="10" visible="yes" active="yes"/>
<layer number="44" name="Drills" color="7" fill="1" visible="no" active="yes"/>
<layer number="45" name="Holes" color="7" fill="1" visible="no" active="yes"/>
<layer number="46" name="Milling" color="3" fill="1" visible="no" active="yes"/>
<layer number="47" name="Measures" color="7" fill="1" visible="no" active="yes"/>
<layer number="48" name="Document" color="7" fill="1" visible="yes" active="yes"/>
<layer number="49" name="Reference" color="7" fill="1" visible="yes" active="yes"/>
<layer number="50" name="dxf" color="7" fill="1" visible="no" active="no"/>
<layer number="51" name="tDocu" color="7" fill="1" visible="yes" active="yes"/>
<layer number="52" name="bDocu" color="7" fill="1" visible="yes" active="yes"/>
<layer number="53" name="tGND_GNDA" color="7" fill="9" visible="no" active="no"/>
<layer number="54" name="bGND_GNDA" color="1" fill="9" visible="no" active="no"/>
<layer number="56" name="wert" color="7" fill="1" visible="no" active="no"/>
<layer number="57" name="tCAD" color="7" fill="1" visible="no" active="no"/>
<layer number="59" name="tCarbon" color="7" fill="1" visible="no" active="no"/>
<layer number="60" name="bCarbon" color="7" fill="1" visible="no" active="no"/>
<layer number="90" name="Modules" color="5" fill="1" visible="no" active="no"/>
<layer number="91" name="Nets" color="2" fill="1" visible="no" active="no"/>
<layer number="92" name="Busses" color="1" fill="1" visible="no" active="no"/>
<layer number="93" name="Pins" color="2" fill="1" visible="no" active="no"/>
<layer number="94" name="Symbols" color="4" fill="1" visible="no" active="no"/>
<layer number="95" name="Names" color="7" fill="1" visible="no" active="no"/>
<layer number="96" name="Values" color="7" fill="1" visible="no" active="no"/>
<layer number="97" name="Info" color="7" fill="1" visible="no" active="no"/>
<layer number="98" name="Guide" color="6" fill="1" visible="no" active="no"/>
<layer number="99" name="SpiceOrder" color="7" fill="1" visible="no" active="no"/>
<layer number="100" name="Muster" color="7" fill="1" visible="no" active="no"/>
<layer number="101" name="Patch_Top" color="12" fill="4" visible="no" active="yes"/>
<layer number="102" name="Vscore" color="7" fill="1" visible="no" active="yes"/>
<layer number="103" name="fp3" color="7" fill="1" visible="no" active="yes"/>
<layer number="104" name="Name" color="7" fill="1" visible="no" active="yes"/>
<layer number="105" name="Beschreib" color="9" fill="1" visible="no" active="yes"/>
<layer number="106" name="BGA-Top" color="4" fill="1" visible="no" active="yes"/>
<layer number="107" name="BD-Top" color="5" fill="1" visible="no" active="yes"/>
<layer number="108" name="fp8" color="7" fill="1" visible="no" active="yes"/>
<layer number="109" name="fp9" color="7" fill="1" visible="no" active="yes"/>
<layer number="110" name="fp0" color="7" fill="1" visible="no" active="yes"/>
<layer number="111" name="LPC17xx" color="7" fill="1" visible="no" active="yes"/>
<layer number="112" name="tSilk" color="7" fill="1" visible="no" active="yes"/>
<layer number="113" name="ReferenceLS" color="7" fill="1" visible="no" active="no"/>
<layer number="114" name="Badge_Outline" color="7" fill="1" visible="no" active="yes"/>
<layer number="115" name="ReferenceISLANDS" color="7" fill="1" visible="no" active="yes"/>
<layer number="116" name="Patch_BOT" color="9" fill="4" visible="no" active="yes"/>
<layer number="118" name="Rect_Pads" color="7" fill="1" visible="no" active="no"/>
<layer number="121" name="_tsilk" color="7" fill="1" visible="no" active="yes"/>
<layer number="122" name="_bsilk" color="7" fill="1" visible="no" active="yes"/>
<layer number="123" name="tTestmark" color="7" fill="1" visible="no" active="yes"/>
<layer number="124" name="bTestmark" color="7" fill="1" visible="no" active="yes"/>
<layer number="125" name="_tNames" color="7" fill="1" visible="no" active="yes"/>
<layer number="126" name="_bNames" color="7" fill="1" visible="no" active="yes"/>
<layer number="127" name="_tValues" color="7" fill="1" visible="no" active="yes"/>
<layer number="128" name="_bValues" color="7" fill="1" visible="no" active="yes"/>
<layer number="129" name="Mask" color="7" fill="1" visible="yes" active="yes"/>
<layer number="131" name="tAdjust" color="7" fill="1" visible="no" active="yes"/>
<layer number="132" name="bAdjust" color="7" fill="1" visible="no" active="yes"/>
<layer number="144" name="Drill_legend" color="7" fill="1" visible="no" active="yes"/>
<layer number="150" name="Notes" color="7" fill="1" visible="no" active="yes"/>
<layer number="151" name="HeatSink" color="7" fill="1" visible="no" active="yes"/>
<layer number="152" name="_bDocu" color="7" fill="1" visible="no" active="yes"/>
<layer number="153" name="FabDoc1" color="6" fill="1" visible="no" active="no"/>
<layer number="154" name="FabDoc2" color="2" fill="1" visible="no" active="no"/>
<layer number="155" name="FabDoc3" color="7" fill="15" visible="no" active="no"/>
<layer number="199" name="Contour" color="7" fill="1" visible="no" active="yes"/>
<layer number="200" name="200bmp" color="1" fill="10" visible="no" active="yes"/>
<layer number="201" name="201bmp" color="2" fill="1" visible="no" active="no"/>
<layer number="202" name="202bmp" color="3" fill="1" visible="no" active="no"/>
<layer number="203" name="203bmp" color="4" fill="10" visible="no" active="yes"/>
<layer number="204" name="204bmp" color="5" fill="10" visible="no" active="yes"/>
<layer number="205" name="205bmp" color="6" fill="10" visible="no" active="yes"/>
<layer number="206" name="206bmp" color="7" fill="10" visible="no" active="yes"/>
<layer number="207" name="207bmp" color="8" fill="10" visible="no" active="yes"/>
<layer number="208" name="208bmp" color="9" fill="10" visible="no" active="yes"/>
<layer number="209" name="209bmp" color="7" fill="1" visible="no" active="yes"/>
<layer number="210" name="210bmp" color="7" fill="1" visible="no" active="yes"/>
<layer number="211" name="211bmp" color="7" fill="1" visible="no" active="yes"/>
<layer number="212" name="212bmp" color="7" fill="1" visible="no" active="yes"/>
<layer number="213" name="213bmp" color="7" fill="1" visible="no" active="yes"/>
<layer number="214" name="214bmp" color="7" fill="1" visible="no" active="yes"/>
<layer number="215" name="215bmp" color="7" fill="1" visible="no" active="yes"/>
<layer number="216" name="216bmp" color="7" fill="1" visible="no" active="yes"/>
<layer number="217" name="217bmp" color="18" fill="1" visible="no" active="no"/>
<layer number="218" name="218bmp" color="19" fill="1" visible="no" active="no"/>
<layer number="219" name="219bmp" color="20" fill="1" visible="no" active="no"/>
<layer number="220" name="220bmp" color="21" fill="1" visible="no" active="no"/>
<layer number="221" name="221bmp" color="22" fill="1" visible="no" active="no"/>
<layer number="222" name="222bmp" color="23" fill="1" visible="no" active="no"/>
<layer number="223" name="223bmp" color="24" fill="1" visible="no" active="no"/>
<layer number="224" name="224bmp" color="25" fill="1" visible="no" active="no"/>
<layer number="225" name="225bmp" color="7" fill="1" visible="yes" active="yes"/>
<layer number="226" name="226bmp" color="7" fill="1" visible="yes" active="yes"/>
<layer number="227" name="227bmp" color="7" fill="1" visible="yes" active="yes"/>
<layer number="228" name="228bmp" color="7" fill="1" visible="yes" active="yes"/>
<layer number="229" name="229bmp" color="7" fill="1" visible="yes" active="yes"/>
<layer number="230" name="230bmp" color="7" fill="1" visible="yes" active="yes"/>
<layer number="231" name="Eagle3D_PG1" color="7" fill="1" visible="no" active="no"/>
<layer number="232" name="Eagle3D_PG2" color="7" fill="1" visible="no" active="no"/>
<layer number="233" name="Eagle3D_PG3" color="7" fill="1" visible="no" active="no"/>
<layer number="248" name="Housing" color="7" fill="1" visible="no" active="yes"/>
<layer number="249" name="Edge" color="7" fill="1" visible="no" active="yes"/>
<layer number="250" name="Descript" color="7" fill="1" visible="no" active="no"/>
<layer number="251" name="SMDround" color="7" fill="1" visible="no" active="no"/>
<layer number="254" name="cooling" color="7" fill="1" visible="no" active="yes"/>
<layer number="255" name="routoute" color="7" fill="1" visible="yes" active="yes"/>
</layers>
<board>
<plain>
<wire x1="0" y1="0" x2="65.766" y2="0" width="0" layer="20"/>
<wire x1="65.766" y1="0" x2="65.766" y2="51.486" width="0" layer="20"/>
<wire x1="65.766" y1="51.486" x2="0" y2="51.486" width="0" layer="20"/>
<wire x1="0" y1="51.486" x2="0" y2="0" width="0" layer="20"/>
<text x="53.34" y="49.784" size="0.8128" layer="21">grizu-263 SPACE TEAM</text>
<text x="54.864" y="48.26" size="0.8128" layer="21">CONTAINER BOARD</text>
<text x="54.356" y="45.212" size="0.8128" layer="21">       Designed By 
Özgür Tuzcu(ozgurtzc)</text>
<text x="31.496" y="13.208" size="1.016" layer="21" rot="R90">ARDUINO NANO</text>
</plain>
<libraries>
<library name="buzzer">
<description>&lt;b&gt;Speakers and Buzzers&lt;/b&gt;&lt;p&gt;
&lt;ul&gt;Distributors:
&lt;li&gt;Buerklin
&lt;li&gt;Spoerle
&lt;li&gt;Schukat
&lt;/ul&gt;
&lt;author&gt;Created by librarian@cadsoft.de&lt;/author&gt;</description>
<packages>
<package name="BMT1205XH7.5">
<description>&lt;b&gt;MAGNETIC TRANSDUCER&lt;/b&gt;&lt;p&gt;
Source: Http:www.be-star.com</description>
<wire x1="2.931" y1="0.012" x2="4.709" y2="0.012" width="0.1524" layer="51"/>
<wire x1="3.82" y1="0.901" x2="3.82" y2="-0.877" width="0.1524" layer="51"/>
<circle x="0" y="0" radius="6" width="0.1524" layer="21"/>
<circle x="0" y="0" radius="1" width="0.1524" layer="21"/>
<circle x="3.82" y="0.012" radius="1.397" width="0.1524" layer="21"/>
<pad name="-" x="-3.8" y="0" drill="0.9" diameter="1.5"/>
<pad name="+" x="3.8" y="0" drill="0.9" diameter="1.5"/>
<text x="-4.445" y="6.35" size="1.778" layer="25" ratio="10">&gt;NAME</text>
<text x="-5.08" y="-8.255" size="1.778" layer="27" ratio="10">&gt;VALUE</text>
</package>
</packages>
</library>
<library name="SparkFun-Connectors">
<description>&lt;h3&gt;SparkFun Connectors&lt;/h3&gt;
This library contains electrically-functional connectors. 
&lt;br&gt;
&lt;br&gt;
We've spent an enormous amount of time creating and checking these footprints and parts, but it is &lt;b&gt; the end user's responsibility&lt;/b&gt; to ensure correctness and suitablity for a given componet or application. 
&lt;br&gt;
&lt;br&gt;If you enjoy using this library, please buy one of our products at &lt;a href=" www.sparkfun.com"&gt;SparkFun.com&lt;/a&gt;.
&lt;br&gt;
&lt;br&gt;
&lt;b&gt;Licensing:&lt;/b&gt; Creative Commons ShareAlike 4.0 International - https://creativecommons.org/licenses/by-sa/4.0/ 
&lt;br&gt;
&lt;br&gt;
You are welcome to use this library for commercial purposes. For attribution, we ask that when you begin to sell your device using our footprint, you email us with a link to the product being sold. We want bragging rights that we helped (in a very small part) to create your 8th world wonder. We would like the opportunity to feature your device on our homepage.</description>
<packages>
<package name="1X02">
<description>&lt;h3&gt;Plated Through Hole&lt;/h3&gt;
&lt;p&gt;Specifications:
&lt;ul&gt;&lt;li&gt;Pin count:2&lt;/li&gt;
&lt;li&gt;Pin pitch:0.1"&lt;/li&gt;
&lt;/ul&gt;&lt;/p&gt;
&lt;p&gt;Example device(s):
&lt;ul&gt;&lt;li&gt;CONN_02&lt;/li&gt;
&lt;/ul&gt;&lt;/p&gt;</description>
<wire x1="-0.635" y1="1.27" x2="0.635" y2="1.27" width="0.2032" layer="21"/>
<wire x1="0.635" y1="1.27" x2="1.27" y2="0.635" width="0.2032" layer="21"/>
<wire x1="1.27" y1="-0.635" x2="0.635" y2="-1.27" width="0.2032" layer="21"/>
<wire x1="1.27" y1="0.635" x2="1.905" y2="1.27" width="0.2032" layer="21"/>
<wire x1="1.905" y1="1.27" x2="3.175" y2="1.27" width="0.2032" layer="21"/>
<wire x1="3.175" y1="1.27" x2="3.81" y2="0.635" width="0.2032" layer="21"/>
<wire x1="3.81" y1="-0.635" x2="3.175" y2="-1.27" width="0.2032" layer="21"/>
<wire x1="3.175" y1="-1.27" x2="1.905" y2="-1.27" width="0.2032" layer="21"/>
<wire x1="1.905" y1="-1.27" x2="1.27" y2="-0.635" width="0.2032" layer="21"/>
<wire x1="-1.27" y1="0.635" x2="-1.27" y2="-0.635" width="0.2032" layer="21"/>
<wire x1="-0.635" y1="1.27" x2="-1.27" y2="0.635" width="0.2032" layer="21"/>
<wire x1="-1.27" y1="-0.635" x2="-0.635" y2="-1.27" width="0.2032" layer="21"/>
<wire x1="0.635" y1="-1.27" x2="-0.635" y2="-1.27" width="0.2032" layer="21"/>
<wire x1="3.81" y1="0.635" x2="3.81" y2="-0.635" width="0.2032" layer="21"/>
<pad name="1" x="0" y="0" drill="1.016" diameter="1.8796" rot="R90"/>
<pad name="2" x="2.54" y="0" drill="1.016" diameter="1.8796" rot="R90"/>
<rectangle x1="2.286" y1="-0.254" x2="2.794" y2="0.254" layer="51"/>
<rectangle x1="-0.254" y1="-0.254" x2="0.254" y2="0.254" layer="51"/>
<text x="-1.27" y="1.397" size="0.6096" layer="25" font="vector" ratio="20">&gt;NAME</text>
<text x="-1.27" y="-2.032" size="0.6096" layer="27" font="vector" ratio="20">&gt;VALUE</text>
</package>
<package name="1X03">
<description>&lt;h3&gt;Plated Through Hole - 3 Pin&lt;/h3&gt;
&lt;p&gt;Specifications:
&lt;ul&gt;&lt;li&gt;Pin count:3&lt;/li&gt;
&lt;li&gt;Pin pitch:0.1"&lt;/li&gt;
&lt;/ul&gt;&lt;/p&gt;
&lt;p&gt;Example device(s):
&lt;ul&gt;&lt;li&gt;CONN_03&lt;/li&gt;
&lt;/ul&gt;&lt;/p&gt;</description>
<wire x1="3.81" y1="0.635" x2="4.445" y2="1.27" width="0.2032" layer="21"/>
<wire x1="4.445" y1="1.27" x2="5.715" y2="1.27" width="0.2032" layer="21"/>
<wire x1="5.715" y1="1.27" x2="6.35" y2="0.635" width="0.2032" layer="21"/>
<wire x1="6.35" y1="-0.635" x2="5.715" y2="-1.27" width="0.2032" layer="21"/>
<wire x1="5.715" y1="-1.27" x2="4.445" y2="-1.27" width="0.2032" layer="21"/>
<wire x1="4.445" y1="-1.27" x2="3.81" y2="-0.635" width="0.2032" layer="21"/>
<wire x1="-0.635" y1="1.27" x2="0.635" y2="1.27" width="0.2032" layer="21"/>
<wire x1="0.635" y1="1.27" x2="1.27" y2="0.635" width="0.2032" layer="21"/>
<wire x1="1.27" y1="-0.635" x2="0.635" y2="-1.27" width="0.2032" layer="21"/>
<wire x1="1.27" y1="0.635" x2="1.905" y2="1.27" width="0.2032" layer="21"/>
<wire x1="1.905" y1="1.27" x2="3.175" y2="1.27" width="0.2032" layer="21"/>
<wire x1="3.175" y1="1.27" x2="3.81" y2="0.635" width="0.2032" layer="21"/>
<wire x1="3.81" y1="-0.635" x2="3.175" y2="-1.27" width="0.2032" layer="21"/>
<wire x1="3.175" y1="-1.27" x2="1.905" y2="-1.27" width="0.2032" layer="21"/>
<wire x1="1.905" y1="-1.27" x2="1.27" y2="-0.635" width="0.2032" layer="21"/>
<wire x1="-1.27" y1="0.635" x2="-1.27" y2="-0.635" width="0.2032" layer="21"/>
<wire x1="-0.635" y1="1.27" x2="-1.27" y2="0.635" width="0.2032" layer="21"/>
<wire x1="-1.27" y1="-0.635" x2="-0.635" y2="-1.27" width="0.2032" layer="21"/>
<wire x1="0.635" y1="-1.27" x2="-0.635" y2="-1.27" width="0.2032" layer="21"/>
<wire x1="6.35" y1="0.635" x2="6.35" y2="-0.635" width="0.2032" layer="21"/>
<pad name="1" x="0" y="0" drill="1.016" diameter="1.8796" rot="R90"/>
<pad name="2" x="2.54" y="0" drill="1.016" diameter="1.8796" rot="R90"/>
<pad name="3" x="5.08" y="0" drill="1.016" diameter="1.8796" rot="R90"/>
<rectangle x1="4.826" y1="-0.254" x2="5.334" y2="0.254" layer="51"/>
<rectangle x1="2.286" y1="-0.254" x2="2.794" y2="0.254" layer="51"/>
<rectangle x1="-0.254" y1="-0.254" x2="0.254" y2="0.254" layer="51"/>
<text x="-1.27" y="1.397" size="0.6096" layer="25" font="vector" ratio="20">&gt;NAME</text>
<text x="-1.27" y="-2.032" size="0.6096" layer="27" font="vector" ratio="20">&gt;VALUE</text>
</package>
<package name="1X06">
<description>&lt;h3&gt;Plated Through Hole - 6 Pin&lt;/h3&gt;
&lt;p&gt;Specifications:
&lt;ul&gt;&lt;li&gt;Pin count:6&lt;/li&gt;
&lt;li&gt;Pin pitch:0.1"&lt;/li&gt;
&lt;/ul&gt;&lt;/p&gt;
&lt;p&gt;Example device(s):
&lt;ul&gt;&lt;li&gt;CONN_06&lt;/li&gt;
&lt;/ul&gt;&lt;/p&gt;</description>
<wire x1="11.43" y1="0.635" x2="12.065" y2="1.27" width="0.2032" layer="21"/>
<wire x1="12.065" y1="1.27" x2="13.335" y2="1.27" width="0.2032" layer="21"/>
<wire x1="13.335" y1="1.27" x2="13.97" y2="0.635" width="0.2032" layer="21"/>
<wire x1="13.97" y1="-0.635" x2="13.335" y2="-1.27" width="0.2032" layer="21"/>
<wire x1="13.335" y1="-1.27" x2="12.065" y2="-1.27" width="0.2032" layer="21"/>
<wire x1="12.065" y1="-1.27" x2="11.43" y2="-0.635" width="0.2032" layer="21"/>
<wire x1="6.985" y1="1.27" x2="8.255" y2="1.27" width="0.2032" layer="21"/>
<wire x1="8.255" y1="1.27" x2="8.89" y2="0.635" width="0.2032" layer="21"/>
<wire x1="8.89" y1="-0.635" x2="8.255" y2="-1.27" width="0.2032" layer="21"/>
<wire x1="8.89" y1="0.635" x2="9.525" y2="1.27" width="0.2032" layer="21"/>
<wire x1="9.525" y1="1.27" x2="10.795" y2="1.27" width="0.2032" layer="21"/>
<wire x1="10.795" y1="1.27" x2="11.43" y2="0.635" width="0.2032" layer="21"/>
<wire x1="11.43" y1="-0.635" x2="10.795" y2="-1.27" width="0.2032" layer="21"/>
<wire x1="10.795" y1="-1.27" x2="9.525" y2="-1.27" width="0.2032" layer="21"/>
<wire x1="9.525" y1="-1.27" x2="8.89" y2="-0.635" width="0.2032" layer="21"/>
<wire x1="3.81" y1="0.635" x2="4.445" y2="1.27" width="0.2032" layer="21"/>
<wire x1="4.445" y1="1.27" x2="5.715" y2="1.27" width="0.2032" layer="21"/>
<wire x1="5.715" y1="1.27" x2="6.35" y2="0.635" width="0.2032" layer="21"/>
<wire x1="6.35" y1="-0.635" x2="5.715" y2="-1.27" width="0.2032" layer="21"/>
<wire x1="5.715" y1="-1.27" x2="4.445" y2="-1.27" width="0.2032" layer="21"/>
<wire x1="4.445" y1="-1.27" x2="3.81" y2="-0.635" width="0.2032" layer="21"/>
<wire x1="6.985" y1="1.27" x2="6.35" y2="0.635" width="0.2032" layer="21"/>
<wire x1="6.35" y1="-0.635" x2="6.985" y2="-1.27" width="0.2032" layer="21"/>
<wire x1="8.255" y1="-1.27" x2="6.985" y2="-1.27" width="0.2032" layer="21"/>
<wire x1="-0.635" y1="1.27" x2="0.635" y2="1.27" width="0.2032" layer="21"/>
<wire x1="0.635" y1="1.27" x2="1.27" y2="0.635" width="0.2032" layer="21"/>
<wire x1="1.27" y1="-0.635" x2="0.635" y2="-1.27" width="0.2032" layer="21"/>
<wire x1="1.27" y1="0.635" x2="1.905" y2="1.27" width="0.2032" layer="21"/>
<wire x1="1.905" y1="1.27" x2="3.175" y2="1.27" width="0.2032" layer="21"/>
<wire x1="3.175" y1="1.27" x2="3.81" y2="0.635" width="0.2032" layer="21"/>
<wire x1="3.81" y1="-0.635" x2="3.175" y2="-1.27" width="0.2032" layer="21"/>
<wire x1="3.175" y1="-1.27" x2="1.905" y2="-1.27" width="0.2032" layer="21"/>
<wire x1="1.905" y1="-1.27" x2="1.27" y2="-0.635" width="0.2032" layer="21"/>
<wire x1="-1.27" y1="0.635" x2="-1.27" y2="-0.635" width="0.2032" layer="21"/>
<wire x1="-0.635" y1="1.27" x2="-1.27" y2="0.635" width="0.2032" layer="21"/>
<wire x1="-1.27" y1="-0.635" x2="-0.635" y2="-1.27" width="0.2032" layer="21"/>
<wire x1="0.635" y1="-1.27" x2="-0.635" y2="-1.27" width="0.2032" layer="21"/>
<wire x1="13.97" y1="0.635" x2="13.97" y2="-0.635" width="0.2032" layer="21"/>
<pad name="1" x="0" y="0" drill="1.016" diameter="1.8796" rot="R90"/>
<pad name="2" x="2.54" y="0" drill="1.016" diameter="1.8796" rot="R90"/>
<pad name="3" x="5.08" y="0" drill="1.016" diameter="1.8796" rot="R90"/>
<pad name="4" x="7.62" y="0" drill="1.016" diameter="1.8796" rot="R90"/>
<pad name="5" x="10.16" y="0" drill="1.016" diameter="1.8796" rot="R90"/>
<pad name="6" x="12.7" y="0" drill="1.016" diameter="1.8796" rot="R90"/>
<rectangle x1="12.446" y1="-0.254" x2="12.954" y2="0.254" layer="51"/>
<rectangle x1="9.906" y1="-0.254" x2="10.414" y2="0.254" layer="51"/>
<rectangle x1="7.366" y1="-0.254" x2="7.874" y2="0.254" layer="51"/>
<rectangle x1="4.826" y1="-0.254" x2="5.334" y2="0.254" layer="51"/>
<rectangle x1="2.286" y1="-0.254" x2="2.794" y2="0.254" layer="51"/>
<rectangle x1="-0.254" y1="-0.254" x2="0.254" y2="0.254" layer="51"/>
<text x="-1.27" y="1.397" size="0.6096" layer="25" font="vector" ratio="20">&gt;NAME</text>
<text x="-1.27" y="-2.032" size="0.6096" layer="27" font="vector" ratio="20">&gt;VALUE</text>
</package>
<package name="1X07">
<description>&lt;h3&gt;Plated Through Hole -7 Pin&lt;/h3&gt;
&lt;p&gt;Specifications:
&lt;ul&gt;&lt;li&gt;Pin count:7&lt;/li&gt;
&lt;li&gt;Pin pitch:0.1"&lt;/li&gt;
&lt;/ul&gt;&lt;/p&gt;
&lt;p&gt;Example device(s):
&lt;ul&gt;&lt;li&gt;CONN_07&lt;/li&gt;
&lt;/ul&gt;&lt;/p&gt;</description>
<wire x1="14.605" y1="1.27" x2="15.875" y2="1.27" width="0.2032" layer="21"/>
<wire x1="15.875" y1="1.27" x2="16.51" y2="0.635" width="0.2032" layer="21"/>
<wire x1="16.51" y1="-0.635" x2="15.875" y2="-1.27" width="0.2032" layer="21"/>
<wire x1="11.43" y1="0.635" x2="12.065" y2="1.27" width="0.2032" layer="21"/>
<wire x1="12.065" y1="1.27" x2="13.335" y2="1.27" width="0.2032" layer="21"/>
<wire x1="13.335" y1="1.27" x2="13.97" y2="0.635" width="0.2032" layer="21"/>
<wire x1="13.97" y1="-0.635" x2="13.335" y2="-1.27" width="0.2032" layer="21"/>
<wire x1="13.335" y1="-1.27" x2="12.065" y2="-1.27" width="0.2032" layer="21"/>
<wire x1="12.065" y1="-1.27" x2="11.43" y2="-0.635" width="0.2032" layer="21"/>
<wire x1="14.605" y1="1.27" x2="13.97" y2="0.635" width="0.2032" layer="21"/>
<wire x1="13.97" y1="-0.635" x2="14.605" y2="-1.27" width="0.2032" layer="21"/>
<wire x1="15.875" y1="-1.27" x2="14.605" y2="-1.27" width="0.2032" layer="21"/>
<wire x1="6.985" y1="1.27" x2="8.255" y2="1.27" width="0.2032" layer="21"/>
<wire x1="8.255" y1="1.27" x2="8.89" y2="0.635" width="0.2032" layer="21"/>
<wire x1="8.89" y1="-0.635" x2="8.255" y2="-1.27" width="0.2032" layer="21"/>
<wire x1="8.89" y1="0.635" x2="9.525" y2="1.27" width="0.2032" layer="21"/>
<wire x1="9.525" y1="1.27" x2="10.795" y2="1.27" width="0.2032" layer="21"/>
<wire x1="10.795" y1="1.27" x2="11.43" y2="0.635" width="0.2032" layer="21"/>
<wire x1="11.43" y1="-0.635" x2="10.795" y2="-1.27" width="0.2032" layer="21"/>
<wire x1="10.795" y1="-1.27" x2="9.525" y2="-1.27" width="0.2032" layer="21"/>
<wire x1="9.525" y1="-1.27" x2="8.89" y2="-0.635" width="0.2032" layer="21"/>
<wire x1="3.81" y1="0.635" x2="4.445" y2="1.27" width="0.2032" layer="21"/>
<wire x1="4.445" y1="1.27" x2="5.715" y2="1.27" width="0.2032" layer="21"/>
<wire x1="5.715" y1="1.27" x2="6.35" y2="0.635" width="0.2032" layer="21"/>
<wire x1="6.35" y1="-0.635" x2="5.715" y2="-1.27" width="0.2032" layer="21"/>
<wire x1="5.715" y1="-1.27" x2="4.445" y2="-1.27" width="0.2032" layer="21"/>
<wire x1="4.445" y1="-1.27" x2="3.81" y2="-0.635" width="0.2032" layer="21"/>
<wire x1="6.985" y1="1.27" x2="6.35" y2="0.635" width="0.2032" layer="21"/>
<wire x1="6.35" y1="-0.635" x2="6.985" y2="-1.27" width="0.2032" layer="21"/>
<wire x1="8.255" y1="-1.27" x2="6.985" y2="-1.27" width="0.2032" layer="21"/>
<wire x1="-0.635" y1="1.27" x2="0.635" y2="1.27" width="0.2032" layer="21"/>
<wire x1="0.635" y1="1.27" x2="1.27" y2="0.635" width="0.2032" layer="21"/>
<wire x1="1.27" y1="-0.635" x2="0.635" y2="-1.27" width="0.2032" layer="21"/>
<wire x1="1.27" y1="0.635" x2="1.905" y2="1.27" width="0.2032" layer="21"/>
<wire x1="1.905" y1="1.27" x2="3.175" y2="1.27" width="0.2032" layer="21"/>
<wire x1="3.175" y1="1.27" x2="3.81" y2="0.635" width="0.2032" layer="21"/>
<wire x1="3.81" y1="-0.635" x2="3.175" y2="-1.27" width="0.2032" layer="21"/>
<wire x1="3.175" y1="-1.27" x2="1.905" y2="-1.27" width="0.2032" layer="21"/>
<wire x1="1.905" y1="-1.27" x2="1.27" y2="-0.635" width="0.2032" layer="21"/>
<wire x1="-1.27" y1="0.635" x2="-1.27" y2="-0.635" width="0.2032" layer="21"/>
<wire x1="-0.635" y1="1.27" x2="-1.27" y2="0.635" width="0.2032" layer="21"/>
<wire x1="-1.27" y1="-0.635" x2="-0.635" y2="-1.27" width="0.2032" layer="21"/>
<wire x1="0.635" y1="-1.27" x2="-0.635" y2="-1.27" width="0.2032" layer="21"/>
<wire x1="16.51" y1="0.635" x2="16.51" y2="-0.635" width="0.2032" layer="21"/>
<pad name="1" x="0" y="0" drill="1.016" diameter="1.8796" rot="R90"/>
<pad name="2" x="2.54" y="0" drill="1.016" diameter="1.8796" rot="R90"/>
<pad name="3" x="5.08" y="0" drill="1.016" diameter="1.8796" rot="R90"/>
<pad name="4" x="7.62" y="0" drill="1.016" diameter="1.8796" rot="R90"/>
<pad name="5" x="10.16" y="0" drill="1.016" diameter="1.8796" rot="R90"/>
<pad name="6" x="12.7" y="0" drill="1.016" diameter="1.8796" rot="R90"/>
<pad name="7" x="15.24" y="0" drill="1.016" diameter="1.8796" rot="R90"/>
<rectangle x1="14.986" y1="-0.254" x2="15.494" y2="0.254" layer="51"/>
<rectangle x1="12.446" y1="-0.254" x2="12.954" y2="0.254" layer="51"/>
<rectangle x1="9.906" y1="-0.254" x2="10.414" y2="0.254" layer="51"/>
<rectangle x1="7.366" y1="-0.254" x2="7.874" y2="0.254" layer="51"/>
<rectangle x1="4.826" y1="-0.254" x2="5.334" y2="0.254" layer="51"/>
<rectangle x1="2.286" y1="-0.254" x2="2.794" y2="0.254" layer="51"/>
<rectangle x1="-0.254" y1="-0.254" x2="0.254" y2="0.254" layer="51"/>
<text x="-1.27" y="1.397" size="0.6096" layer="25" font="vector" ratio="20">&gt;NAME</text>
<text x="-1.27" y="-2.032" size="0.6096" layer="27" font="vector" ratio="20">&gt;VALUE</text>
</package>
</packages>
</library>
<library name="adafruit">
<packages>
<package name="0204V">
<description>&lt;b&gt;RESISTOR&lt;/b&gt;&lt;p&gt;
type 0204, grid 2.5 mm</description>
<wire x1="-1.27" y1="0" x2="1.27" y2="0" width="0.508" layer="51"/>
<wire x1="-0.127" y1="0" x2="0.127" y2="0" width="0.508" layer="21"/>
<circle x="-1.27" y="0" radius="0.889" width="0.1524" layer="51"/>
<circle x="-1.27" y="0" radius="0.635" width="0.0508" layer="51"/>
<pad name="1" x="-1.27" y="0" drill="0.8128" shape="octagon"/>
<pad name="2" x="1.27" y="0" drill="0.8128" shape="octagon"/>
<text x="-2.1336" y="1.1684" size="1.27" layer="25" ratio="12">&gt;NAME</text>
<text x="-2.1336" y="-2.3114" size="1.27" layer="27" ratio="12">&gt;VALUE</text>
</package>
<package name="TC26V">
<description>&lt;b&gt;CRYSTAL&lt;/b&gt;</description>
<wire x1="-0.127" y1="-0.508" x2="0.127" y2="-0.508" width="0.1524" layer="51"/>
<wire x1="0.127" y1="0.508" x2="0.127" y2="-0.508" width="0.1524" layer="51"/>
<wire x1="0.127" y1="0.508" x2="-0.127" y2="0.508" width="0.1524" layer="51"/>
<wire x1="-0.127" y1="-0.508" x2="-0.127" y2="0.508" width="0.1524" layer="51"/>
<wire x1="-0.381" y1="-0.508" x2="-0.381" y2="0" width="0.1524" layer="51"/>
<wire x1="0.381" y1="-0.508" x2="0.381" y2="0" width="0.1524" layer="51"/>
<wire x1="0.381" y1="0" x2="0.762" y2="0" width="0.1524" layer="51"/>
<wire x1="0.381" y1="0" x2="0.381" y2="0.508" width="0.1524" layer="51"/>
<wire x1="-0.381" y1="0" x2="-0.762" y2="0" width="0.1524" layer="51"/>
<wire x1="-0.381" y1="0" x2="-0.381" y2="0.508" width="0.1524" layer="51"/>
<wire x1="0" y1="1.016" x2="0.7184" y2="0.7184" width="0.1524" layer="21" curve="-44.999323"/>
<wire x1="-0.7184" y1="0.7184" x2="0" y2="1.016" width="0.1524" layer="21" curve="-44.999323"/>
<wire x1="-0.7184" y1="-0.7184" x2="0" y2="-1.016" width="0.1524" layer="21" curve="44.999323"/>
<wire x1="0" y1="-1.016" x2="0.7184" y2="-0.7184" width="0.1524" layer="21" curve="44.999323"/>
<circle x="0" y="0" radius="1.016" width="0.1524" layer="51"/>
<pad name="1" x="-1.27" y="0" drill="0.8128"/>
<pad name="2" x="1.27" y="0" drill="0.8128"/>
<text x="-2.032" y="1.397" size="1.27" layer="25" ratio="10">&gt;NAME</text>
<text x="-2.032" y="-2.667" size="1.27" layer="27" ratio="10">&gt;VALUE</text>
</package>
<package name="0204/7">
<description>&lt;b&gt;RESISTOR&lt;/b&gt;&lt;p&gt;
type 0204, grid 7.5 mm</description>
<wire x1="3.81" y1="0" x2="2.921" y2="0" width="0.508" layer="51"/>
<wire x1="-3.81" y1="0" x2="-2.921" y2="0" width="0.508" layer="51"/>
<wire x1="-2.54" y1="0.762" x2="-2.286" y2="1.016" width="0.1524" layer="21" curve="-90"/>
<wire x1="-2.54" y1="-0.762" x2="-2.286" y2="-1.016" width="0.1524" layer="21" curve="90"/>
<wire x1="2.286" y1="-1.016" x2="2.54" y2="-0.762" width="0.1524" layer="21" curve="90"/>
<wire x1="2.286" y1="1.016" x2="2.54" y2="0.762" width="0.1524" layer="21" curve="-90"/>
<wire x1="-2.54" y1="-0.762" x2="-2.54" y2="0.762" width="0.1524" layer="21"/>
<wire x1="-2.286" y1="1.016" x2="-1.905" y2="1.016" width="0.1524" layer="21"/>
<wire x1="-1.778" y1="0.889" x2="-1.905" y2="1.016" width="0.1524" layer="21"/>
<wire x1="-2.286" y1="-1.016" x2="-1.905" y2="-1.016" width="0.1524" layer="21"/>
<wire x1="-1.778" y1="-0.889" x2="-1.905" y2="-1.016" width="0.1524" layer="21"/>
<wire x1="1.778" y1="0.889" x2="1.905" y2="1.016" width="0.1524" layer="21"/>
<wire x1="1.778" y1="0.889" x2="-1.778" y2="0.889" width="0.1524" layer="21"/>
<wire x1="1.778" y1="-0.889" x2="1.905" y2="-1.016" width="0.1524" layer="21"/>
<wire x1="1.778" y1="-0.889" x2="-1.778" y2="-0.889" width="0.1524" layer="21"/>
<wire x1="2.286" y1="1.016" x2="1.905" y2="1.016" width="0.1524" layer="21"/>
<wire x1="2.286" y1="-1.016" x2="1.905" y2="-1.016" width="0.1524" layer="21"/>
<wire x1="2.54" y1="-0.762" x2="2.54" y2="0.762" width="0.1524" layer="21"/>
<pad name="1" x="-3.81" y="0" drill="0.8128" diameter="1.6764" shape="octagon"/>
<pad name="2" x="3.81" y="0" drill="0.8128" diameter="1.6764" shape="octagon"/>
<text x="-2.54" y="1.2954" size="0.9906" layer="25" ratio="12">&gt;NAME</text>
<text x="-1.6256" y="-0.4826" size="0.9906" layer="27" ratio="12">&gt;VALUE</text>
<rectangle x1="2.54" y1="-0.254" x2="2.921" y2="0.254" layer="21"/>
<rectangle x1="-2.921" y1="-0.254" x2="-2.54" y2="0.254" layer="21"/>
</package>
<package name="DIL08-ROUND">
<description>&lt;b&gt;Dual In Line Package&lt;/b&gt;</description>
<wire x1="5.08" y1="2.921" x2="-5.08" y2="2.921" width="0.1524" layer="21"/>
<wire x1="-5.08" y1="-2.921" x2="5.08" y2="-2.921" width="0.1524" layer="21"/>
<wire x1="5.08" y1="2.921" x2="5.08" y2="-2.921" width="0.1524" layer="21"/>
<wire x1="-5.08" y1="2.921" x2="-5.08" y2="1.016" width="0.1524" layer="21"/>
<wire x1="-5.08" y1="-2.921" x2="-5.08" y2="-1.016" width="0.1524" layer="21"/>
<wire x1="-5.08" y1="1.016" x2="-5.08" y2="-1.016" width="0.1524" layer="21" curve="-180"/>
<pad name="1" x="-3.81" y="-3.81" drill="0.8128" diameter="1.6764" rot="R90"/>
<pad name="2" x="-1.27" y="-3.81" drill="0.8128" diameter="1.6764" rot="R90"/>
<pad name="7" x="-1.27" y="3.81" drill="0.8128" diameter="1.6764" rot="R90"/>
<pad name="8" x="-3.81" y="3.81" drill="0.8128" diameter="1.6764" rot="R90"/>
<pad name="3" x="1.27" y="-3.81" drill="0.8128" diameter="1.6764" rot="R90"/>
<pad name="4" x="3.81" y="-3.81" drill="0.8128" diameter="1.6764" rot="R90"/>
<pad name="6" x="1.27" y="3.81" drill="0.8128" diameter="1.6764" rot="R90"/>
<pad name="5" x="3.81" y="3.81" drill="0.8128" diameter="1.6764" rot="R90"/>
<text x="-5.334" y="-2.921" size="1.27" layer="25" ratio="10" rot="R90">&gt;NAME</text>
<text x="-3.556" y="-0.635" size="1.27" layer="27" ratio="10">&gt;VALUE</text>
</package>
<package name="CR1220-SMD">
<wire x1="-9.84" y1="-1.64" x2="-6.66" y2="-1.64" width="0.127" layer="21"/>
<wire x1="-6.66" y1="-1.64" x2="-6.66" y2="-3.672" width="0.127" layer="21"/>
<wire x1="-6.66" y1="-3.672" x2="-3.826" y2="-6.66" width="0.127" layer="21"/>
<wire x1="-3.826" y1="-6.66" x2="3.98" y2="-6.66" width="0.127" layer="21"/>
<wire x1="3.98" y1="-6.66" x2="6.66" y2="-3.826" width="0.127" layer="21"/>
<wire x1="6.66" y1="-3.826" x2="6.66" y2="-1.54" width="0.127" layer="21"/>
<wire x1="6.66" y1="-1.54" x2="9.84" y2="-1.54" width="0.127" layer="21"/>
<wire x1="9.84" y1="-1.54" x2="9.84" y2="1.64" width="0.127" layer="21"/>
<wire x1="9.84" y1="1.64" x2="6.66" y2="1.64" width="0.127" layer="21"/>
<wire x1="6.66" y1="1.64" x2="6.66" y2="6.652" width="0.127" layer="21"/>
<wire x1="6.66" y1="6.652" x2="5.842" y2="6.652" width="0.127" layer="21"/>
<wire x1="5.842" y1="6.652" x2="3.702" y2="4.404" width="0.127" layer="21"/>
<wire x1="3.702" y1="4.404" x2="-3.048" y2="4.404" width="0.127" layer="21"/>
<wire x1="-3.048" y1="4.404" x2="-5.334" y2="6.652" width="0.127" layer="21"/>
<wire x1="-5.334" y1="6.652" x2="-6.66" y2="6.652" width="0.127" layer="21"/>
<wire x1="-6.66" y1="6.652" x2="-6.66" y2="1.64" width="0.127" layer="21"/>
<wire x1="-6.66" y1="1.64" x2="-9.84" y2="1.64" width="0.127" layer="21"/>
<wire x1="-9.84" y1="1.64" x2="-9.84" y2="-1.64" width="0.127" layer="21"/>
<circle x="-8.254" y="0" radius="0.9158" width="0.127" layer="21"/>
<circle x="8.4" y="0.154" radius="0.9158" width="0.127" layer="21"/>
<smd name="-" x="0" y="0" dx="3.9" dy="3.9" layer="1"/>
<smd name="+$1" x="-8.2" y="0" dx="3.2" dy="3.2" layer="1"/>
<smd name="+$2" x="8.2" y="0" dx="3.2" dy="3.2" layer="1"/>
<text x="-3.556" y="5.602" size="1.6764" layer="25" font="vector">&gt;NAME</text>
<text x="-4.318" y="-4.55" size="1.6764" layer="27" font="vector">&gt;VALUE</text>
</package>
</packages>
</library>
<library name="SparkFun-Resistors">
<description>&lt;h3&gt;SparkFun Resistors&lt;/h3&gt;
This library contains resistors. Reference designator:R. 
&lt;br&gt;
&lt;br&gt;
We've spent an enormous amount of time creating and checking these footprints and parts, but it is &lt;b&gt; the end user's responsibility&lt;/b&gt; to ensure correctness and suitablity for a given componet or application. 
&lt;br&gt;
&lt;br&gt;If you enjoy using this library, please buy one of our products at &lt;a href=" www.sparkfun.com"&gt;SparkFun.com&lt;/a&gt;.
&lt;br&gt;
&lt;br&gt;
&lt;b&gt;Licensing:&lt;/b&gt; Creative Commons ShareAlike 4.0 International - https://creativecommons.org/licenses/by-sa/4.0/ 
&lt;br&gt;
&lt;br&gt;
You are welcome to use this library for commercial purposes. For attribution, we ask that when you begin to sell your device using our footprint, you email us with a link to the product being sold. We want bragging rights that we helped (in a very small part) to create your 8th world wonder. We would like the opportunity to feature your device on our homepage.</description>
<packages>
<package name="AXIAL-0.3">
<description>&lt;h3&gt;AXIAL-0.3&lt;/h3&gt;
&lt;p&gt;Commonly used for 1/4W through-hole resistors. 0.3" pitch between holes.&lt;/p&gt;</description>
<wire x1="-2.54" y1="0.762" x2="2.54" y2="0.762" width="0.2032" layer="21"/>
<wire x1="2.54" y1="0.762" x2="2.54" y2="0" width="0.2032" layer="21"/>
<wire x1="2.54" y1="0" x2="2.54" y2="-0.762" width="0.2032" layer="21"/>
<wire x1="2.54" y1="-0.762" x2="-2.54" y2="-0.762" width="0.2032" layer="21"/>
<wire x1="-2.54" y1="-0.762" x2="-2.54" y2="0" width="0.2032" layer="21"/>
<wire x1="-2.54" y1="0" x2="-2.54" y2="0.762" width="0.2032" layer="21"/>
<wire x1="2.54" y1="0" x2="2.794" y2="0" width="0.2032" layer="21"/>
<wire x1="-2.54" y1="0" x2="-2.794" y2="0" width="0.2032" layer="21"/>
<pad name="P$1" x="-3.81" y="0" drill="0.9" diameter="1.8796"/>
<pad name="P$2" x="3.81" y="0" drill="0.9" diameter="1.8796"/>
<text x="0" y="1.016" size="0.6096" layer="25" font="vector" ratio="20" align="bottom-center">&gt;Name</text>
<text x="0" y="-1.016" size="0.6096" layer="27" font="vector" ratio="20" align="top-center">&gt;Value</text>
</package>
</packages>
</library>
<library name="Arduino-clone">
<description>Arduino Clone pinheaders
By cl@xganon.com
http://www.xganon.com</description>
<packages>
<package name="NANO">
<pad name="TX0" x="5.08" y="-8.89" drill="0.8" shape="long"/>
<pad name="RX1" x="5.08" y="-6.35" drill="0.8" shape="long"/>
<pad name="RST1" x="5.08" y="-3.81" drill="0.8" shape="long"/>
<pad name="GND1" x="5.08" y="-1.27" drill="0.8" shape="long"/>
<pad name="D2" x="5.08" y="1.27" drill="0.8" shape="long"/>
<pad name="D3" x="5.08" y="3.81" drill="0.8" shape="long"/>
<pad name="D4" x="5.08" y="6.35" drill="0.8" shape="long"/>
<pad name="D5" x="5.08" y="8.89" drill="0.8" shape="long"/>
<pad name="D6" x="5.08" y="11.43" drill="0.8" shape="long"/>
<pad name="D7" x="5.08" y="13.97" drill="0.8" shape="long"/>
<pad name="D8" x="5.08" y="16.51" drill="0.8" shape="long"/>
<pad name="D9" x="5.08" y="19.05" drill="0.8" shape="long"/>
<pad name="RAW" x="-10.16" y="-8.89" drill="0.8" shape="long"/>
<pad name="GND" x="-10.16" y="-6.35" drill="0.8" shape="long"/>
<pad name="RST" x="-10.16" y="-3.81" drill="0.8" shape="long"/>
<pad name="A3" x="-10.16" y="11.43" drill="0.8" shape="long"/>
<pad name="A2" x="-10.16" y="13.97" drill="0.8" shape="long"/>
<pad name="A1" x="-10.16" y="16.51" drill="0.8" shape="long"/>
<pad name="A0" x="-10.16" y="19.05" drill="0.8" shape="long"/>
<pad name="D13" x="-10.16" y="26.67" drill="0.8" shape="long"/>
<pad name="D12" x="5.08" y="26.67" drill="0.8" shape="long"/>
<pad name="D11" x="5.08" y="24.13" drill="0.8" shape="long"/>
<pad name="D10" x="5.08" y="21.59" drill="0.8" shape="long"/>
<pad name="3.3V" x="-10.16" y="24.13" drill="0.8" shape="long" rot="R180"/>
<pad name="AREF" x="-10.16" y="21.59" drill="0.8" shape="long" rot="R180"/>
<pad name="5V" x="-10.16" y="-1.27" drill="0.8" shape="long"/>
<pad name="ICSP2" x="-5.08" y="-7.62" drill="0.8" rot="R90"/>
<pad name="ICSP4" x="-2.54" y="-7.62" drill="0.8" rot="R90"/>
<pad name="ICSP6" x="0" y="-7.62" drill="0.8" rot="R90"/>
<pad name="A4" x="-10.16" y="8.89" drill="0.8" shape="long" rot="R180"/>
<pad name="A5" x="-10.16" y="6.35" drill="0.8" shape="long" rot="R180"/>
<pad name="A6" x="-10.16" y="3.81" drill="0.8" shape="long" rot="R180"/>
<pad name="A7" x="-10.16" y="1.27" drill="0.8" shape="long" rot="R180"/>
<pad name="ICSP1" x="-5.08" y="-10.16" drill="0.8" rot="R90"/>
<pad name="ICSP3" x="-2.54" y="-10.16" drill="0.8" rot="R90"/>
<pad name="ICSP5" x="0" y="-10.16" drill="0.8" rot="R90"/>
</package>
</packages>
</library>
<library name="SparkFun-RF">
<description>&lt;h3&gt;SparkFun RF, WiFi, Cellular, and Bluetooth&lt;/h3&gt;
In this library you'll find things that send or receive RF-- cellular modules, Bluetooth, WiFi, etc.
&lt;br&gt;
&lt;br&gt;
We've spent an enormous amount of time creating and checking these footprints and parts, but it is &lt;b&gt; the end user's responsibility&lt;/b&gt; to ensure correctness and suitablity for a given componet or application. 
&lt;br&gt;
&lt;br&gt;If you enjoy using this library, please buy one of our products at &lt;a href=" www.sparkfun.com"&gt;SparkFun.com&lt;/a&gt;.
&lt;br&gt;
&lt;br&gt;
&lt;b&gt;Licensing:&lt;/b&gt; Creative Commons ShareAlike 4.0 International - https://creativecommons.org/licenses/by-sa/4.0/ 
&lt;br&gt;
&lt;br&gt;
You are welcome to use this library for commercial purposes. For attribution, we ask that when you begin to sell your device using our footprint, you email us with a link to the product being sold. We want bragging rights that we helped (in a very small part) to create your 8th world wonder. We would like the opportunity to feature your device on our homepage.</description>
<packages>
<package name="XBEE">
<description>&lt;h3&gt;Digi XBee and XBee-PRO RF Modules&lt;/h3&gt;
&lt;p&gt;20-pin 2mm PTH headers.&lt;/p&gt;
&lt;p&gt;&lt;a href="https://www.sparkfun.com/datasheets/Wireless/Zigbee/XBee-Dimensional.pdf"&gt;XBee Mechanical Drawings&lt;/a&gt;&lt;/p&gt;
&lt;p&gt;&lt;a href="http://www.sparkfun.com/datasheets/Prototyping/XBee-Connector.pdf"&gt;Header Mechanical Drawing&lt;/a&gt;&lt;/p&gt;
&lt;p&gt;&lt;a href="https://www.sparkfun.com/products/8272"&gt;Header SparkFun Product Link&lt;/a&gt;&lt;/p&gt;</description>
<wire x1="-5" y1="27.6" x2="5" y2="27.6" width="0.127" layer="51"/>
<wire x1="-12.25" y1="21.25" x2="-5" y2="27.6" width="0.127" layer="51"/>
<wire x1="12.25" y1="21.25" x2="5" y2="27.6" width="0.127" layer="51"/>
<wire x1="9.75" y1="21.25" x2="12.25" y2="21.25" width="0.2032" layer="21"/>
<wire x1="12.25" y1="21.25" x2="12.25" y2="0.75" width="0.2032" layer="21"/>
<wire x1="12.25" y1="0.75" x2="9.75" y2="0.75" width="0.2032" layer="21"/>
<wire x1="9.75" y1="21.25" x2="9.75" y2="0.75" width="0.2032" layer="21"/>
<wire x1="-9.75" y1="21.25" x2="-12.25" y2="21.25" width="0.2032" layer="21"/>
<wire x1="-12.25" y1="21.25" x2="-12.25" y2="0.75" width="0.2032" layer="21"/>
<wire x1="-12.25" y1="0.75" x2="-9.75" y2="0.75" width="0.2032" layer="21"/>
<wire x1="-9.75" y1="21.25" x2="-9.75" y2="0.75" width="0.2032" layer="21"/>
<wire x1="-12.25" y1="0.75" x2="-12.25" y2="0" width="0.127" layer="51"/>
<wire x1="12.25" y1="0.75" x2="12.25" y2="0" width="0.127" layer="51"/>
<wire x1="-12.25" y1="0" x2="12.25" y2="0" width="0.127" layer="51"/>
<wire x1="12.25" y1="0" x2="12.25" y2="-6.25" width="0.127" layer="51"/>
<wire x1="-12.25" y1="0" x2="-12.25" y2="-6.25" width="0.127" layer="51"/>
<wire x1="-12.25" y1="-6.25" x2="12.25" y2="-6.25" width="0.127" layer="51"/>
<pad name="1" x="-11" y="20" drill="0.8" diameter="1.524"/>
<pad name="2" x="-11" y="18" drill="0.8" diameter="1.524" rot="R180"/>
<pad name="3" x="-11" y="16" drill="0.8" diameter="1.524"/>
<pad name="4" x="-11" y="14" drill="0.8" diameter="1.524"/>
<pad name="5" x="-11" y="12" drill="0.8" diameter="1.524"/>
<pad name="6" x="-11" y="10" drill="0.8" diameter="1.524"/>
<pad name="7" x="-11" y="8" drill="0.8" diameter="1.524"/>
<pad name="8" x="-11" y="6" drill="0.8" diameter="1.524"/>
<pad name="9" x="-11" y="4" drill="0.8" diameter="1.524"/>
<pad name="10" x="-11" y="2" drill="0.8" diameter="1.524"/>
<pad name="11" x="11" y="2" drill="0.8" diameter="1.524"/>
<pad name="12" x="11" y="4" drill="0.8" diameter="1.524"/>
<pad name="13" x="11" y="6" drill="0.8" diameter="1.524"/>
<pad name="14" x="11" y="8" drill="0.8" diameter="1.524"/>
<pad name="15" x="11" y="10" drill="0.8" diameter="1.524"/>
<pad name="16" x="11" y="12" drill="0.8" diameter="1.524"/>
<pad name="17" x="11" y="14" drill="0.8" diameter="1.524"/>
<pad name="18" x="11" y="16" drill="0.8" diameter="1.524"/>
<pad name="19" x="11" y="18" drill="0.8" diameter="1.524"/>
<pad name="20" x="11" y="20" drill="0.8" diameter="1.524"/>
<text x="0" y="9.16" size="0.6096" layer="25" font="vector" ratio="20" align="bottom-center">&gt;NAME</text>
<text x="0" y="8.62" size="0.6096" layer="27" font="vector" ratio="20" align="top-center">&gt;VALUE</text>
<text x="-9.5" y="20" size="1.016" layer="21" font="vector" ratio="15" align="center-left">1</text>
</package>
</packages>
</library>
</libraries>
<attributes>
</attributes>
<variantdefs>
</variantdefs>
<classes>
<class number="0" name="default" width="0" drill="0">
</class>
</classes>
<designrules name="SparkFun">
<description language="tr">&lt;b&gt;EAGLE Design Rules&lt;/b&gt;
&lt;p&gt;
The default Design Rules have been set to cover
a wide range of applications. Your particular design
may have different requirements, so please make the
necessary adjustments and save your customized
design rules under a new name.</description>
<param name="layerSetup" value="(1*16)"/>
<param name="mtCopper" value="0.035mm 0.035mm 0.035mm 0.035mm 0.035mm 0.035mm 0.035mm 0.035mm 0.035mm 0.035mm 0.035mm 0.035mm 0.035mm 0.035mm 0.035mm 0.035mm"/>
<param name="mtIsolate" value="1.5mm 0.15mm 0.2mm 0.15mm 0.2mm 0.15mm 0.2mm 0.15mm 0.2mm 0.15mm 0.2mm 0.15mm 0.2mm 0.15mm 0.2mm"/>
<param name="mdWireWire" value="8mil"/>
<param name="mdWirePad" value="8mil"/>
<param name="mdWireVia" value="8mil"/>
<param name="mdPadPad" value="8mil"/>
<param name="mdPadVia" value="8mil"/>
<param name="mdViaVia" value="8mil"/>
<param name="mdSmdPad" value="8mil"/>
<param name="mdSmdVia" value="8mil"/>
<param name="mdSmdSmd" value="8mil"/>
<param name="mdViaViaSameLayer" value="8mil"/>
<param name="mnLayersViaInSmd" value="2"/>
<param name="mdCopperDimension" value="10mil"/>
<param name="mdDrill" value="8mil"/>
<param name="mdSmdStop" value="0mil"/>
<param name="msWidth" value="8mil"/>
<param name="msDrill" value="20mil"/>
<param name="msMicroVia" value="9.99mm"/>
<param name="msBlindViaRatio" value="0.5"/>
<param name="rvPadTop" value="0.25"/>
<param name="rvPadInner" value="0.25"/>
<param name="rvPadBottom" value="0.25"/>
<param name="rvViaOuter" value="0.25"/>
<param name="rvViaInner" value="0.25"/>
<param name="rvMicroViaOuter" value="0.25"/>
<param name="rvMicroViaInner" value="0.25"/>
<param name="rlMinPadTop" value="12mil"/>
<param name="rlMaxPadTop" value="20mil"/>
<param name="rlMinPadInner" value="10mil"/>
<param name="rlMaxPadInner" value="20mil"/>
<param name="rlMinPadBottom" value="12mil"/>
<param name="rlMaxPadBottom" value="20mil"/>
<param name="rlMinViaOuter" value="10mil"/>
<param name="rlMaxViaOuter" value="20mil"/>
<param name="rlMinViaInner" value="10mil"/>
<param name="rlMaxViaInner" value="20mil"/>
<param name="rlMinMicroViaOuter" value="4mil"/>
<param name="rlMaxMicroViaOuter" value="20mil"/>
<param name="rlMinMicroViaInner" value="4mil"/>
<param name="rlMaxMicroViaInner" value="20mil"/>
<param name="psTop" value="-1"/>
<param name="psBottom" value="-1"/>
<param name="psFirst" value="-1"/>
<param name="psElongationLong" value="100"/>
<param name="psElongationOffset" value="100"/>
<param name="mvStopFrame" value="1"/>
<param name="mvCreamFrame" value="0"/>
<param name="mlMinStopFrame" value="4mil"/>
<param name="mlMaxStopFrame" value="4mil"/>
<param name="mlMinCreamFrame" value="0mil"/>
<param name="mlMaxCreamFrame" value="0mil"/>
<param name="mlViaStopLimit" value="25mil"/>
<param name="srRoundness" value="0"/>
<param name="srMinRoundness" value="0mil"/>
<param name="srMaxRoundness" value="0mil"/>
<param name="slThermalIsolate" value="10mil"/>
<param name="slThermalsForVias" value="0"/>
<param name="dpMaxLengthDifference" value="10mm"/>
<param name="dpGapFactor" value="2.5"/>
<param name="checkGrid" value="0"/>
<param name="checkAngle" value="0"/>
<param name="checkFont" value="1"/>
<param name="checkRestrict" value="1"/>
<param name="useDiameter" value="13"/>
<param name="maxErrors" value="50"/>
</designrules>
<autorouter>
<pass name="Default">
<param name="RoutingGrid" value="50mil"/>
<param name="AutoGrid" value="1"/>
<param name="Efforts" value="0"/>
<param name="TopRouterVariant" value="1"/>
<param name="tpViaShape" value="round"/>
<param name="PrefDir.1" value="|"/>
<param name="PrefDir.2" value="0"/>
<param name="PrefDir.3" value="0"/>
<param name="PrefDir.4" value="0"/>
<param name="PrefDir.5" value="0"/>
<param name="PrefDir.6" value="0"/>
<param name="PrefDir.7" value="0"/>
<param name="PrefDir.8" value="0"/>
<param name="PrefDir.9" value="0"/>
<param name="PrefDir.10" value="0"/>
<param name="PrefDir.11" value="0"/>
<param name="PrefDir.12" value="0"/>
<param name="PrefDir.13" value="0"/>
<param name="PrefDir.14" value="0"/>
<param name="PrefDir.15" value="0"/>
<param name="PrefDir.16" value="-"/>
<param name="cfVia" value="8"/>
<param name="cfNonPref" value="5"/>
<param name="cfChangeDir" value="2"/>
<param name="cfOrthStep" value="2"/>
<param name="cfDiagStep" value="3"/>
<param name="cfExtdStep" value="0"/>
<param name="cfBonusStep" value="1"/>
<param name="cfMalusStep" value="1"/>
<param name="cfPadImpact" value="4"/>
<param name="cfSmdImpact" value="4"/>
<param name="cfBusImpact" value="0"/>
<param name="cfHugging" value="3"/>
<param name="cfAvoid" value="4"/>
<param name="cfPolygon" value="10"/>
<param name="cfBase.1" value="0"/>
<param name="cfBase.2" value="1"/>
<param name="cfBase.3" value="1"/>
<param name="cfBase.4" value="1"/>
<param name="cfBase.5" value="1"/>
<param name="cfBase.6" value="1"/>
<param name="cfBase.7" value="1"/>
<param name="cfBase.8" value="1"/>
<param name="cfBase.9" value="1"/>
<param name="cfBase.10" value="1"/>
<param name="cfBase.11" value="1"/>
<param name="cfBase.12" value="1"/>
<param name="cfBase.13" value="1"/>
<param name="cfBase.14" value="1"/>
<param name="cfBase.15" value="1"/>
<param name="cfBase.16" value="0"/>
<param name="mnVias" value="20"/>
<param name="mnSegments" value="9999"/>
<param name="mnExtdSteps" value="9999"/>
<param name="mnRipupLevel" value="10"/>
<param name="mnRipupSteps" value="100"/>
<param name="mnRipupTotal" value="100"/>
</pass>
<pass name="Follow-me" refer="Default" active="yes">
</pass>
<pass name="Busses" refer="Default" active="yes">
<param name="cfNonPref" value="4"/>
<param name="cfBusImpact" value="4"/>
<param name="cfHugging" value="0"/>
<param name="mnVias" value="0"/>
</pass>
<pass name="Route" refer="Default" active="yes">
</pass>
<pass name="Optimize1" refer="Default" active="yes">
<param name="cfVia" value="99"/>
<param name="cfExtdStep" value="10"/>
<param name="cfHugging" value="1"/>
<param name="mnExtdSteps" value="1"/>
<param name="mnRipupLevel" value="0"/>
</pass>
<pass name="Optimize2" refer="Optimize1" active="yes">
<param name="cfNonPref" value="0"/>
<param name="cfChangeDir" value="6"/>
<param name="cfExtdStep" value="0"/>
<param name="cfBonusStep" value="2"/>
<param name="cfMalusStep" value="2"/>
<param name="cfPadImpact" value="2"/>
<param name="cfSmdImpact" value="2"/>
<param name="cfHugging" value="0"/>
</pass>
<pass name="Optimize3" refer="Optimize2" active="yes">
<param name="cfChangeDir" value="8"/>
<param name="cfPadImpact" value="0"/>
<param name="cfSmdImpact" value="0"/>
</pass>
<pass name="Optimize4" refer="Optimize3" active="yes">
<param name="cfChangeDir" value="25"/>
</pass>
</autorouter>
<elements>
<element name="BUZZER" library="buzzer" package="BMT1205XH7.5" value="BMT1205XH7.5" x="8.382" y="45.212" smashed="yes">
<attribute name="MF" value="" x="8.382" y="45.212" size="1.778" layer="27" display="off"/>
<attribute name="MPN" value="" x="8.382" y="45.212" size="1.778" layer="27" display="off"/>
<attribute name="NAME" x="3.937" y="46.99" size="1.778" layer="25" ratio="10"/>
<attribute name="OC_FARNELL" value="unknown" x="8.382" y="45.212" size="1.778" layer="27" display="off"/>
<attribute name="OC_NEWARK" value="unknown" x="8.382" y="45.212" size="1.778" layer="27" display="off"/>
</element>
<element name="J1" library="SparkFun-Connectors" package="1X02" value="BATCON" x="52.832" y="43.434" smashed="yes">
<attribute name="VALUE" x="51.562" y="41.402" size="0.6096" layer="27" font="vector" ratio="20"/>
</element>
<element name="J2" library="SparkFun-Connectors" package="1X03" value="SERVO" x="8.382" y="37.338" smashed="yes">
<attribute name="NAME" x="7.112" y="38.735" size="0.6096" layer="25" font="vector" ratio="20"/>
<attribute name="VALUE" x="7.112" y="35.306" size="0.6096" layer="27" font="vector" ratio="20"/>
</element>
<element name="J3" library="SparkFun-Connectors" package="1X06" value="10-DOF IMU" x="47.244" y="38.354" smashed="yes">
<attribute name="PROD_ID" value="CONN-08437" x="47.244" y="38.354" size="1.778" layer="27" display="off"/>
<attribute name="VALUE" x="45.974" y="36.322" size="0.6096" layer="27" font="vector" ratio="20"/>
</element>
<element name="J4" library="SparkFun-Connectors" package="1X07" value="MIKRO SD" x="3.81" y="33.274" smashed="yes">
<attribute name="NAME" x="2.54" y="34.671" size="0.6096" layer="25" font="vector" ratio="20"/>
<attribute name="VALUE" x="2.54" y="31.242" size="0.6096" layer="27" font="vector" ratio="20"/>
</element>
<element name="LDR" library="adafruit" package="0204V" value="" x="54.102" y="46.99" smashed="yes">
<attribute name="NAME" x="51.9684" y="48.1584" size="0.6096" layer="25" ratio="12"/>
<attribute name="VALUE" x="51.9684" y="44.6786" size="1.27" layer="27" ratio="12"/>
</element>
<element name="Q2" library="adafruit" package="TC26V" value="32.768" x="11.43" y="28.702" smashed="yes" rot="R180">
<attribute name="MF" value="" x="11.43" y="28.702" size="1.778" layer="27" rot="R180" display="off"/>
<attribute name="MPN" value="" x="11.43" y="28.702" size="1.778" layer="27" rot="R180" display="off"/>
<attribute name="OC_FARNELL" value="unknown" x="11.43" y="28.702" size="1.778" layer="27" rot="R180" display="off"/>
<attribute name="OC_NEWARK" value="unknown" x="11.43" y="28.702" size="1.778" layer="27" rot="R180" display="off"/>
<attribute name="VALUE" x="13.462" y="31.369" size="1.27" layer="27" ratio="10" rot="R180"/>
</element>
<element name="R1" library="SparkFun-Resistors" package="AXIAL-0.3" value="1k" x="22.86" y="48.26" smashed="yes">
<attribute name="PROD_ID" value="RES-09329" x="22.86" y="48.26" size="1.778" layer="27" display="off"/>
<attribute name="VALUE" x="22.86" y="48.26" size="0.6096" layer="27" font="vector" ratio="20" align="top-center"/>
</element>
<element name="R10" library="adafruit" package="0204/7" value="1.8k" x="45.212" y="45.72" smashed="yes">
<attribute name="VALUE" x="43.5864" y="45.2374" size="0.9906" layer="27" ratio="12"/>
</element>
<element name="R11" library="adafruit" package="0204/7" value="2.2k" x="45.212" y="48.26" smashed="yes">
<attribute name="VALUE" x="43.5864" y="47.7774" size="0.9906" layer="27" ratio="12"/>
</element>
<element name="R3" library="adafruit" package="0204/7" value="3.3k" x="22.86" y="45.72" smashed="yes">
<attribute name="VALUE" x="21.2344" y="45.2374" size="0.9906" layer="27" ratio="12"/>
</element>
<element name="R4" library="SparkFun-Resistors" package="AXIAL-0.3" value="100k" x="22.86" y="43.18" smashed="yes">
<attribute name="PROD_ID" value="RES-09329" x="22.86" y="43.18" size="1.778" layer="27" display="off"/>
<attribute name="VALUE" x="22.86" y="43.18" size="0.6096" layer="27" font="vector" ratio="20" align="top-center"/>
</element>
<element name="R5" library="adafruit" package="0204/7" value="10k" x="34.29" y="43.18" smashed="yes">
<attribute name="VALUE" x="32.6644" y="42.6974" size="0.9906" layer="27" ratio="12"/>
</element>
<element name="R6" library="adafruit" package="0204/7" value="1.8k" x="34.29" y="45.72" smashed="yes">
<attribute name="VALUE" x="32.6644" y="45.2374" size="0.9906" layer="27" ratio="12"/>
</element>
<element name="R7" library="adafruit" package="0204/7" value="3.3k" x="34.29" y="48.26" smashed="yes">
<attribute name="VALUE" x="32.6644" y="47.7774" size="0.9906" layer="27" ratio="12"/>
</element>
<element name="R8" library="adafruit" package="0204/7" value="3.3k" x="45.212" y="43.18" smashed="yes">
<attribute name="VALUE" x="43.5864" y="42.6974" size="0.9906" layer="27" ratio="12"/>
</element>
<element name="U$1" library="Arduino-clone" package="NANO" value="NANO" x="28.194" y="28.448" smashed="yes" rot="R180"/>
<element name="U$3" library="adafruit" package="DIL08-ROUND" value="DS1302" x="11.43" y="21.336" smashed="yes" rot="R180">
<attribute name="VALUE" x="13.97" y="21.971" size="1.27" layer="27" ratio="10" rot="R180"/>
</element>
<element name="U$4" library="adafruit" package="CR1220-SMD" value="" x="10.922" y="7.62" smashed="yes">
<attribute name="VALUE" x="6.604" y="3.07" size="1.6764" layer="27" font="vector"/>
</element>
<element name="XBEE" library="SparkFun-RF" package="XBEE" value="" x="53.086" y="7.112" smashed="yes">
<attribute name="NAME" x="53.086" y="16.272" size="0.6096" layer="25" font="vector" ratio="20" align="bottom-center"/>
<attribute name="VALUE" x="53.086" y="15.732" size="0.6096" layer="27" font="vector" ratio="20" align="top-center"/>
</element>
</elements>
<signals>
<signal name="SCK">
<contactref element="U$1" pad="D13"/>
<contactref element="R11" pad="1"/>
<wire x1="38.4048" y1="2.2352" x2="38.4048" y2="1.8288" width="0.2032" layer="1"/>
<wire x1="61.3664" y1="25.1968" x2="38.4048" y2="2.2352" width="0.2032" layer="1"/>
<wire x1="61.3664" y1="42.4688" x2="61.3664" y2="25.1968" width="0.2032" layer="1"/>
<wire x1="54.2544" y1="49.5808" x2="61.3664" y2="42.4688" width="0.2032" layer="1"/>
<wire x1="42.672" y1="49.5808" x2="54.2544" y2="49.5808" width="0.2032" layer="1"/>
<wire x1="41.4528" y1="48.3616" x2="42.672" y2="49.5808" width="0.2032" layer="1"/>
<wire x1="38.4048" y1="1.8288" x2="38.354" y2="1.778" width="0.2032" layer="1"/>
<wire x1="41.4528" y1="48.3616" x2="41.402" y2="48.26" width="0.2032" layer="1"/>
</signal>
<signal name="MOSI">
<contactref element="U$1" pad="D11"/>
<contactref element="R6" pad="1"/>
<wire x1="25.4" y1="6.7056" x2="23.1648" y2="4.4704" width="0.2032" layer="16"/>
<wire x1="25.4" y1="34.7472" x2="25.4" y2="6.7056" width="0.2032" layer="16"/>
<wire x1="23.9776" y1="36.1696" x2="25.4" y2="34.7472" width="0.2032" layer="16"/>
<wire x1="22.1488" y1="36.1696" x2="23.9776" y2="36.1696" width="0.2032" layer="16"/>
<wire x1="21.336" y1="36.9824" x2="22.1488" y2="36.1696" width="0.2032" layer="16"/>
<wire x1="21.336" y1="44.704" x2="21.336" y2="36.9824" width="0.2032" layer="16"/>
<wire x1="26.2128" y1="49.5808" x2="21.336" y2="44.704" width="0.2032" layer="16"/>
<wire x1="27.2288" y1="49.5808" x2="26.2128" y2="49.5808" width="0.2032" layer="16"/>
<wire x1="30.48" y1="46.3296" x2="27.2288" y2="49.5808" width="0.2032" layer="16"/>
<wire x1="30.48" y1="45.72" x2="30.48" y2="46.3296" width="0.2032" layer="16"/>
<wire x1="23.1648" y1="4.4704" x2="23.114" y2="4.318" width="0.2032" layer="16"/>
</signal>
<signal name="MISO">
<contactref element="U$1" pad="D12"/>
<contactref element="J4" pad="7"/>
<wire x1="23.1648" y1="2.2352" x2="23.1648" y2="1.8288" width="0.2032" layer="1"/>
<wire x1="24.9936" y1="4.064" x2="23.1648" y2="2.2352" width="0.2032" layer="1"/>
<wire x1="24.9936" y1="30.0736" x2="24.9936" y2="4.064" width="0.2032" layer="1"/>
<wire x1="23.9776" y1="31.0896" x2="24.9936" y2="30.0736" width="0.2032" layer="1"/>
<wire x1="21.1328" y1="31.0896" x2="23.9776" y2="31.0896" width="0.2032" layer="1"/>
<wire x1="19.1008" y1="33.1216" x2="21.1328" y2="31.0896" width="0.2032" layer="1"/>
<wire x1="23.1648" y1="1.8288" x2="23.114" y2="1.778" width="0.2032" layer="1"/>
<wire x1="19.1008" y1="33.1216" x2="19.05" y2="33.274" width="0.2032" layer="1"/>
</signal>
<signal name="RX">
<contactref element="U$1" pad="RX1"/>
<contactref element="XBEE" pad="2"/>
<wire x1="26.416" y1="34.7472" x2="23.1648" y2="34.7472" width="0.2032" layer="1"/>
<wire x1="35.3568" y1="25.8064" x2="26.416" y2="34.7472" width="0.2032" layer="1"/>
<wire x1="41.4528" y1="25.8064" x2="35.3568" y2="25.8064" width="0.2032" layer="1"/>
<wire x1="42.0624" y1="25.1968" x2="41.4528" y2="25.8064" width="0.2032" layer="1"/>
<wire x1="23.1648" y1="34.7472" x2="23.114" y2="34.798" width="0.2032" layer="1"/>
<wire x1="42.0624" y1="25.1968" x2="42.086" y2="25.112" width="0.2032" layer="1"/>
</signal>
<signal name="TX">
<contactref element="U$1" pad="TX0"/>
<contactref element="XBEE" pad="3"/>
<wire x1="23.5712" y1="37.1856" x2="23.1648" y2="37.1856" width="0.2032" layer="16"/>
<wire x1="37.592" y1="23.1648" x2="23.5712" y2="37.1856" width="0.2032" layer="16"/>
<wire x1="42.0624" y1="23.1648" x2="37.592" y2="23.1648" width="0.2032" layer="16"/>
<wire x1="23.1648" y1="37.1856" x2="23.114" y2="37.338" width="0.2032" layer="16"/>
<wire x1="42.0624" y1="23.1648" x2="42.086" y2="23.112" width="0.2032" layer="16"/>
</signal>
<signal name="SCL">
<contactref element="J3" pad="4"/>
<contactref element="U$1" pad="A5"/>
<wire x1="40.8432" y1="19.5072" x2="38.4048" y2="21.9456" width="0.2032" layer="16"/>
<wire x1="40.8432" y1="8.7376" x2="40.8432" y2="19.5072" width="0.2032" layer="16"/>
<wire x1="41.656" y1="7.9248" x2="40.8432" y2="8.7376" width="0.2032" layer="16"/>
<wire x1="42.4688" y1="7.9248" x2="41.656" y2="7.9248" width="0.2032" layer="16"/>
<wire x1="54.864" y1="20.32" x2="42.4688" y2="7.9248" width="0.2032" layer="16"/>
<wire x1="54.864" y1="38.354" x2="54.864" y2="20.32" width="0.2032" layer="16"/>
<wire x1="38.4048" y1="21.9456" x2="38.354" y2="22.098" width="0.2032" layer="16"/>
</signal>
<signal name="SDA">
<contactref element="J3" pad="3"/>
<contactref element="U$1" pad="A4"/>
<wire x1="38.4048" y1="19.1008" x2="38.4048" y2="19.5072" width="0.2032" layer="1"/>
<wire x1="40.8432" y1="16.6624" x2="38.4048" y2="19.1008" width="0.2032" layer="1"/>
<wire x1="40.8432" y1="8.7376" x2="40.8432" y2="16.6624" width="0.2032" layer="1"/>
<wire x1="41.656" y1="7.9248" x2="40.8432" y2="8.7376" width="0.2032" layer="1"/>
<wire x1="42.4688" y1="7.9248" x2="41.656" y2="7.9248" width="0.2032" layer="1"/>
<wire x1="52.2224" y1="17.6784" x2="42.4688" y2="7.9248" width="0.2032" layer="1"/>
<wire x1="52.2224" y1="38.2016" x2="52.2224" y2="17.6784" width="0.2032" layer="1"/>
<wire x1="38.4048" y1="19.5072" x2="38.354" y2="19.558" width="0.2032" layer="1"/>
<wire x1="52.2224" y1="38.2016" x2="52.324" y2="38.354" width="0.2032" layer="1"/>
</signal>
<signal name="N$2">
<contactref element="R4" pad="P$2"/>
<contactref element="R1" pad="P$1"/>
<contactref element="U$1" pad="A0"/>
<wire x1="39.624" y1="9.3472" x2="38.4048" y2="9.3472" width="0.2032" layer="1"/>
<wire x1="41.4528" y1="7.5184" x2="39.624" y2="9.3472" width="0.2032" layer="1"/>
<wire x1="42.672" y1="7.5184" x2="41.4528" y2="7.5184" width="0.2032" layer="1"/>
<wire x1="53.0352" y1="17.8816" x2="42.672" y2="7.5184" width="0.2032" layer="1"/>
<wire x1="53.0352" y1="19.7104" x2="53.0352" y2="17.8816" width="0.2032" layer="1"/>
<wire x1="51.0032" y1="19.7104" x2="53.0352" y2="19.7104" width="0.2032" layer="16"/>
<wire x1="42.0624" y1="28.6512" x2="51.0032" y2="19.7104" width="0.2032" layer="16"/>
<wire x1="36.576" y1="28.6512" x2="42.0624" y2="28.6512" width="0.2032" layer="16"/>
<wire x1="29.2608" y1="35.9664" x2="36.576" y2="28.6512" width="0.2032" layer="16"/>
<wire x1="29.2608" y1="40.64" x2="29.2608" y2="35.9664" width="0.2032" layer="16"/>
<wire x1="26.8224" y1="43.0784" x2="29.2608" y2="40.64" width="0.2032" layer="16"/>
<wire x1="38.4048" y1="9.3472" x2="38.354" y2="9.398" width="0.2032" layer="1"/>
<wire x1="26.8224" y1="43.0784" x2="26.67" y2="43.18" width="0.2032" layer="16"/>
<wire x1="24.9936" y1="48.3616" x2="19.1008" y2="48.3616" width="0.2032" layer="1"/>
<wire x1="26.2128" y1="49.5808" x2="24.9936" y2="48.3616" width="0.2032" layer="1"/>
<wire x1="30.8864" y1="49.5808" x2="26.2128" y2="49.5808" width="0.2032" layer="1"/>
<wire x1="31.6992" y1="48.768" x2="30.8864" y2="49.5808" width="0.2032" layer="1"/>
<wire x1="31.6992" y1="47.752" x2="31.6992" y2="48.768" width="0.2032" layer="1"/>
<wire x1="30.8864" y1="46.9392" x2="31.6992" y2="47.752" width="0.2032" layer="1"/>
<wire x1="30.0736" y1="46.9392" x2="30.8864" y2="46.9392" width="0.2032" layer="1"/>
<wire x1="26.8224" y1="43.688" x2="30.0736" y2="46.9392" width="0.2032" layer="1"/>
<wire x1="26.8224" y1="43.2816" x2="26.8224" y2="43.688" width="0.2032" layer="1"/>
<wire x1="19.1008" y1="48.3616" x2="19.05" y2="48.26" width="0.2032" layer="1"/>
<wire x1="26.8224" y1="43.2816" x2="26.67" y2="43.18" width="0.2032" layer="1"/>
<via x="53.0352" y="19.7104" extent="1-16" drill="0.508"/>
</signal>
<signal name="N$8">
<contactref element="J1" pad="2"/>
<contactref element="U$1" pad="GND"/>
<contactref element="R1" pad="P$2"/>
<wire x1="38.2016" y1="35.3568" x2="38.2016" y2="34.9504" width="0.2032" layer="16"/>
<wire x1="31.6992" y1="41.8592" x2="38.2016" y2="35.3568" width="0.2032" layer="16"/>
<wire x1="31.6992" y1="43.688" x2="31.6992" y2="41.8592" width="0.2032" layer="16"/>
<wire x1="30.8864" y1="44.5008" x2="31.6992" y2="43.688" width="0.2032" layer="16"/>
<wire x1="30.0736" y1="44.5008" x2="30.8864" y2="44.5008" width="0.2032" layer="16"/>
<wire x1="26.8224" y1="47.752" x2="30.0736" y2="44.5008" width="0.2032" layer="16"/>
<wire x1="26.8224" y1="48.1584" x2="26.8224" y2="47.752" width="0.2032" layer="16"/>
<wire x1="38.2016" y1="34.9504" x2="38.354" y2="34.798" width="0.2032" layer="16"/>
<wire x1="26.8224" y1="48.1584" x2="26.67" y2="48.26" width="0.2032" layer="16"/>
<wire x1="54.4576" y1="43.2816" x2="55.2704" y2="43.2816" width="0.2032" layer="1"/>
<wire x1="50.8" y1="39.624" x2="54.4576" y2="43.2816" width="0.2032" layer="1"/>
<wire x1="45.3136" y1="39.624" x2="50.8" y2="39.624" width="0.2032" layer="1"/>
<wire x1="40.64" y1="34.9504" x2="45.3136" y2="39.624" width="0.2032" layer="1"/>
<wire x1="38.4048" y1="34.9504" x2="40.64" y2="34.9504" width="0.2032" layer="1"/>
<wire x1="55.2704" y1="43.2816" x2="55.372" y2="43.434" width="0.2032" layer="1"/>
<wire x1="38.4048" y1="34.9504" x2="38.354" y2="34.798" width="0.2032" layer="1"/>
</signal>
<signal name="N$11">
<contactref element="J4" pad="1"/>
<contactref element="R10" pad="2"/>
<contactref element="R7" pad="1"/>
<wire x1="33.9344" y1="48.1584" x2="30.48" y2="48.1584" width="0.2032" layer="16"/>
<wire x1="37.592" y1="44.5008" x2="33.9344" y2="48.1584" width="0.2032" layer="16"/>
<wire x1="47.752" y1="44.5008" x2="37.592" y2="44.5008" width="0.2032" layer="16"/>
<wire x1="48.9712" y1="45.72" x2="47.752" y2="44.5008" width="0.2032" layer="16"/>
<wire x1="30.48" y1="48.1584" x2="30.48" y2="48.26" width="0.2032" layer="16"/>
<wire x1="48.9712" y1="45.72" x2="49.022" y2="45.72" width="0.2032" layer="16"/>
<wire x1="3.8608" y1="35.3568" x2="3.8608" y2="33.3248" width="0.2032" layer="1"/>
<wire x1="12.192" y1="43.688" x2="3.8608" y2="35.3568" width="0.2032" layer="1"/>
<wire x1="13.0048" y1="43.688" x2="12.192" y2="43.688" width="0.2032" layer="1"/>
<wire x1="16.256" y1="46.9392" x2="13.0048" y2="43.688" width="0.2032" layer="1"/>
<wire x1="29.2608" y1="46.9392" x2="16.256" y2="46.9392" width="0.2032" layer="1"/>
<wire x1="30.48" y1="48.1584" x2="29.2608" y2="46.9392" width="0.2032" layer="1"/>
<wire x1="3.8608" y1="33.3248" x2="3.81" y2="33.274" width="0.2032" layer="1"/>
<wire x1="30.48" y1="48.1584" x2="30.48" y2="48.26" width="0.2032" layer="1"/>
</signal>
<signal name="N$10">
<contactref element="J4" pad="2"/>
<contactref element="R6" pad="2"/>
<contactref element="R3" pad="1"/>
<wire x1="15.6464" y1="45.72" x2="19.05" y2="45.72" width="0.2032" layer="1"/>
<wire x1="8.5344" y1="38.608" x2="15.6464" y2="45.72" width="0.2032" layer="1"/>
<wire x1="7.7216" y1="38.608" x2="8.5344" y2="38.608" width="0.2032" layer="1"/>
<wire x1="6.5024" y1="37.3888" x2="7.7216" y2="38.608" width="0.2032" layer="1"/>
<wire x1="6.5024" y1="33.3248" x2="6.5024" y2="37.3888" width="0.2032" layer="1"/>
<wire x1="6.5024" y1="33.3248" x2="6.35" y2="33.274" width="0.2032" layer="1"/>
<wire x1="36.9824" y1="45.72" x2="38.1" y2="45.72" width="0.2032" layer="16"/>
<wire x1="32.7152" y1="49.9872" x2="36.9824" y2="45.72" width="0.2032" layer="16"/>
<wire x1="23.368" y1="49.9872" x2="32.7152" y2="49.9872" width="0.2032" layer="16"/>
<wire x1="19.1008" y1="45.72" x2="23.368" y2="49.9872" width="0.2032" layer="16"/>
<wire x1="19.1008" y1="45.72" x2="19.05" y2="45.72" width="0.2032" layer="16"/>
</signal>
<signal name="N$13">
<contactref element="J4" pad="5"/>
<contactref element="R11" pad="2"/>
<contactref element="R8" pad="2"/>
<wire x1="49.1744" y1="44.0944" x2="49.1744" y2="43.2816" width="0.2032" layer="16"/>
<wire x1="50.1904" y1="45.1104" x2="49.1744" y2="44.0944" width="0.2032" layer="16"/>
<wire x1="50.1904" y1="47.1424" x2="50.1904" y2="45.1104" width="0.2032" layer="16"/>
<wire x1="49.1744" y1="48.1584" x2="50.1904" y2="47.1424" width="0.2032" layer="16"/>
<wire x1="49.1744" y1="43.2816" x2="49.022" y2="43.18" width="0.2032" layer="16"/>
<wire x1="49.1744" y1="48.1584" x2="49.022" y2="48.26" width="0.2032" layer="16"/>
<wire x1="13.8176" y1="35.1536" x2="13.8176" y2="33.3248" width="0.2032" layer="16"/>
<wire x1="12.192" y1="36.7792" x2="13.8176" y2="35.1536" width="0.2032" layer="16"/>
<wire x1="12.192" y1="43.688" x2="12.192" y2="36.7792" width="0.2032" layer="16"/>
<wire x1="10.9728" y1="44.9072" x2="12.192" y2="43.688" width="0.2032" layer="16"/>
<wire x1="10.9728" y1="45.5168" x2="10.9728" y2="44.9072" width="0.2032" layer="16"/>
<wire x1="16.4592" y1="51.0032" x2="10.9728" y2="45.5168" width="0.2032" layer="16"/>
<wire x1="46.3296" y1="51.0032" x2="16.4592" y2="51.0032" width="0.2032" layer="16"/>
<wire x1="48.9712" y1="48.3616" x2="46.3296" y2="51.0032" width="0.2032" layer="16"/>
<wire x1="13.8176" y1="33.3248" x2="13.97" y2="33.274" width="0.2032" layer="16"/>
<wire x1="48.9712" y1="48.3616" x2="49.022" y2="48.26" width="0.2032" layer="16"/>
</signal>
<signal name="CS">
<contactref element="R10" pad="1"/>
<contactref element="U$1" pad="D10"/>
<wire x1="21.9456" y1="6.7056" x2="22.9616" y2="6.7056" width="0.2032" layer="1"/>
<wire x1="20.5232" y1="5.2832" x2="21.9456" y2="6.7056" width="0.2032" layer="1"/>
<wire x1="8.7376" y1="5.2832" x2="20.5232" y2="5.2832" width="0.2032" layer="1"/>
<wire x1="2.4384" y1="11.5824" x2="8.7376" y2="5.2832" width="0.2032" layer="1"/>
<wire x1="2.4384" y1="34.544" x2="2.4384" y2="11.5824" width="0.2032" layer="1"/>
<wire x1="11.9888" y1="44.0944" x2="2.4384" y2="34.544" width="0.2032" layer="1"/>
<wire x1="12.8016" y1="44.0944" x2="11.9888" y2="44.0944" width="0.2032" layer="1"/>
<wire x1="18.6944" y1="49.9872" x2="12.8016" y2="44.0944" width="0.2032" layer="1"/>
<wire x1="37.9984" y1="49.9872" x2="18.6944" y2="49.9872" width="0.2032" layer="1"/>
<wire x1="41.2496" y1="46.736" x2="37.9984" y2="49.9872" width="0.2032" layer="1"/>
<wire x1="41.2496" y1="45.72" x2="41.2496" y2="46.736" width="0.2032" layer="1"/>
<wire x1="22.9616" y1="6.7056" x2="23.114" y2="6.858" width="0.2032" layer="1"/>
<wire x1="41.2496" y1="45.72" x2="41.402" y2="45.72" width="0.2032" layer="1"/>
</signal>
<signal name="GND">
<contactref element="R8" pad="1"/>
<contactref element="R7" pad="2"/>
<contactref element="R3" pad="2"/>
<contactref element="J2" pad="1"/>
<contactref element="U$1" pad="GND1"/>
<contactref element="J3" pad="2"/>
<contactref element="J4" pad="3"/>
<contactref element="J4" pad="6"/>
<contactref element="BUZZER" pad="-"/>
<contactref element="LDR" pad="1"/>
<contactref element="U$4" pad="-"/>
<contactref element="U$3" pad="4"/>
<contactref element="XBEE" pad="10"/>
<wire x1="7.7216" y1="32.1056" x2="7.7216" y2="25.1968" width="0.2032" layer="1"/>
<wire x1="8.89" y1="33.274" x2="7.7216" y2="32.1056" width="0.2032" layer="1"/>
<wire x1="7.7216" y1="25.1968" x2="7.62" y2="25.146" width="0.2032" layer="1"/>
<wire x1="10.7696" y1="15.24" x2="10.7696" y2="7.7216" width="0.2032" layer="1"/>
<wire x1="8.9408" y1="17.0688" x2="10.7696" y2="15.24" width="0.2032" layer="1"/>
<wire x1="8.9408" y1="23.7744" x2="8.9408" y2="17.0688" width="0.2032" layer="1"/>
<wire x1="7.7216" y1="24.9936" x2="8.9408" y2="23.7744" width="0.2032" layer="1"/>
<wire x1="10.7696" y1="7.7216" x2="10.922" y2="7.62" width="0.2032" layer="1"/>
<wire x1="7.7216" y1="24.9936" x2="7.62" y2="25.146" width="0.2032" layer="1"/>
<wire x1="19.9136" y1="29.8704" x2="22.9616" y2="29.8704" width="0.2032" layer="1"/>
<wire x1="16.51" y1="33.274" x2="19.9136" y2="29.8704" width="0.2032" layer="1"/>
<wire x1="22.9616" y1="29.8704" x2="23.114" y2="29.718" width="0.2032" layer="1"/>
<wire x1="4.6736" y1="41.0464" x2="4.6736" y2="45.1104" width="0.2032" layer="16"/>
<wire x1="8.382" y1="37.338" x2="4.6736" y2="41.0464" width="0.2032" layer="16"/>
<wire x1="4.6736" y1="45.1104" x2="4.582" y2="45.212" width="0.2032" layer="16"/>
<wire x1="16.4592" y1="36.1696" x2="16.4592" y2="33.3248" width="0.2032" layer="1"/>
<wire x1="14.0208" y1="38.608" x2="16.4592" y2="36.1696" width="0.2032" layer="1"/>
<wire x1="9.7536" y1="38.608" x2="14.0208" y2="38.608" width="0.2032" layer="1"/>
<wire x1="8.5344" y1="37.3888" x2="9.7536" y2="38.608" width="0.2032" layer="1"/>
<wire x1="16.4592" y1="33.3248" x2="16.51" y2="33.274" width="0.2032" layer="1"/>
<wire x1="8.5344" y1="37.3888" x2="8.382" y2="37.338" width="0.2032" layer="1"/>
<wire x1="8.7376" y1="36.9824" x2="8.7376" y2="33.3248" width="0.2032" layer="1"/>
<wire x1="8.382" y1="37.338" x2="8.7376" y2="36.9824" width="0.2032" layer="1"/>
<wire x1="8.7376" y1="33.3248" x2="8.89" y2="33.274" width="0.2032" layer="1"/>
<wire x1="26.6192" y1="44.9072" x2="26.6192" y2="45.72" width="0.2032" layer="1"/>
<wire x1="25.4" y1="43.688" x2="26.6192" y2="44.9072" width="0.2032" layer="1"/>
<wire x1="25.4" y1="42.672" x2="25.4" y2="43.688" width="0.2032" layer="1"/>
<wire x1="26.2128" y1="41.8592" x2="25.4" y2="42.672" width="0.2032" layer="1"/>
<wire x1="27.432" y1="41.8592" x2="26.2128" y2="41.8592" width="0.2032" layer="1"/>
<wire x1="30.0736" y1="44.5008" x2="28.6512" y2="43.0784" width="0.2032" layer="1"/>
<wire x1="28.6512" y1="43.0784" x2="27.432" y2="41.8592" width="0.2032" layer="1"/>
<wire x1="34.3408" y1="44.5008" x2="30.0736" y2="44.5008" width="0.2032" layer="1"/>
<wire x1="38.1" y1="48.26" x2="34.3408" y2="44.5008" width="0.2032" layer="1"/>
<wire x1="26.6192" y1="45.72" x2="26.67" y2="45.72" width="0.2032" layer="1"/>
<wire x1="52.832" y1="45.3136" x2="52.832" y2="46.99" width="0.2032" layer="16"/>
<wire x1="49.784" y1="42.2656" x2="52.832" y2="45.3136" width="0.2032" layer="16"/>
<wire x1="49.784" y1="38.354" x2="49.784" y2="41.8592" width="0.2032" layer="16"/>
<wire x1="49.784" y1="41.8592" x2="49.784" y2="42.2656" width="0.2032" layer="16"/>
<wire x1="42.2656" y1="9.7536" x2="42.2656" y2="9.144" width="0.2032" layer="1"/>
<wire x1="49.784" y1="17.272" x2="42.2656" y2="9.7536" width="0.2032" layer="1"/>
<wire x1="49.784" y1="38.354" x2="49.784" y2="17.272" width="0.2032" layer="1"/>
<wire x1="42.2656" y1="9.144" x2="42.086" y2="9.112" width="0.2032" layer="1"/>
<wire x1="47.3456" y1="43.0784" x2="41.4528" y2="43.0784" width="0.2032" layer="16"/>
<wire x1="48.5648" y1="41.8592" x2="47.3456" y2="43.0784" width="0.2032" layer="16"/>
<wire x1="49.784" y1="41.8592" x2="48.5648" y2="41.8592" width="0.2032" layer="16"/>
<wire x1="41.4528" y1="43.0784" x2="41.402" y2="43.18" width="0.2032" layer="16"/>
<wire x1="29.8704" y1="41.8592" x2="28.6512" y2="43.0784" width="0.2032" layer="1"/>
<wire x1="40.0304" y1="41.8592" x2="29.8704" y2="41.8592" width="0.2032" layer="1"/>
<wire x1="41.2496" y1="43.0784" x2="40.0304" y2="41.8592" width="0.2032" layer="1"/>
<wire x1="41.2496" y1="43.0784" x2="41.402" y2="43.18" width="0.2032" layer="1"/>
<wire x1="14.0208" y1="40.0304" x2="14.0208" y2="38.608" width="0.2032" layer="1"/>
<wire x1="18.4912" y1="44.5008" x2="14.0208" y2="40.0304" width="0.2032" layer="1"/>
<wire x1="24.5872" y1="44.5008" x2="18.4912" y2="44.5008" width="0.2032" layer="1"/>
<wire x1="25.4" y1="43.688" x2="24.5872" y2="44.5008" width="0.2032" layer="1"/>
<polygon width="0.4064" layer="1">
<vertex x="0" y="51.816"/>
<vertex x="0" y="0"/>
<vertex x="66.04" y="0"/>
<vertex x="66.04" y="51.816"/>
</polygon>
<polygon width="0.4064" layer="16">
<vertex x="0" y="51.308"/>
<vertex x="0" y="0"/>
<vertex x="66.04" y="0"/>
<vertex x="66.04" y="51.308"/>
</polygon>
</signal>
<signal name="5V">
<contactref element="U$1" pad="5V"/>
<contactref element="J2" pad="2"/>
<contactref element="R5" pad="2"/>
<contactref element="U$3" pad="1"/>
<wire x1="40.2336" y1="31.6992" x2="38.4048" y2="29.8704" width="0.2032" layer="16"/>
<wire x1="40.2336" y1="41.0464" x2="40.2336" y2="31.6992" width="0.2032" layer="16"/>
<wire x1="38.1" y1="43.18" x2="40.2336" y2="41.0464" width="0.2032" layer="16"/>
<wire x1="38.4048" y1="29.8704" x2="38.354" y2="29.718" width="0.2032" layer="16"/>
<wire x1="15.24" y1="27.6352" x2="15.24" y2="25.146" width="0.2032" layer="1"/>
<wire x1="10.16" y1="32.7152" x2="15.24" y2="27.6352" width="0.2032" layer="1"/>
<wire x1="10.16" y1="36.576" x2="10.16" y2="32.7152" width="0.2032" layer="1"/>
<wire x1="10.922" y1="37.338" x2="10.16" y2="36.576" width="0.2032" layer="1"/>
<wire x1="31.9024" y1="29.8704" x2="38.2016" y2="29.8704" width="0.2032" layer="1"/>
<wire x1="25.8064" y1="35.9664" x2="31.9024" y2="29.8704" width="0.2032" layer="1"/>
<wire x1="22.1488" y1="35.9664" x2="25.8064" y2="35.9664" width="0.2032" layer="1"/>
<wire x1="20.9296" y1="34.7472" x2="22.1488" y2="35.9664" width="0.2032" layer="1"/>
<wire x1="20.9296" y1="32.512" x2="20.9296" y2="34.7472" width="0.2032" layer="1"/>
<wire x1="20.9296" y1="30.8864" x2="20.9296" y2="32.512" width="0.2032" layer="16"/>
<wire x1="15.24" y1="25.1968" x2="20.9296" y2="30.8864" width="0.2032" layer="16"/>
<wire x1="38.2016" y1="29.8704" x2="38.354" y2="29.718" width="0.2032" layer="1"/>
<wire x1="15.24" y1="25.1968" x2="15.24" y2="25.146" width="0.2032" layer="16"/>
<via x="20.9296" y="32.512" extent="1-16" drill="0.508"/>
</signal>
<signal name="3.3V">
<contactref element="U$1" pad="3.3V"/>
<contactref element="J4" pad="4"/>
<contactref element="J3" pad="1"/>
<contactref element="XBEE" pad="1"/>
<wire x1="38.2016" y1="4.8768" x2="38.2016" y2="4.4704" width="0.2032" layer="1"/>
<wire x1="36.576" y1="6.5024" x2="38.2016" y2="4.8768" width="0.2032" layer="1"/>
<wire x1="36.576" y1="22.5552" x2="36.576" y2="6.5024" width="0.2032" layer="1"/>
<wire x1="37.592" y1="23.5712" x2="36.576" y2="22.5552" width="0.2032" layer="1"/>
<wire x1="39.624" y1="23.5712" x2="37.592" y2="23.5712" width="0.2032" layer="1"/>
<wire x1="40.64" y1="24.5872" x2="39.624" y2="23.5712" width="0.2032" layer="1"/>
<wire x1="40.64" y1="25.6032" x2="40.64" y2="24.5872" width="0.2032" layer="16"/>
<wire x1="42.0624" y1="27.0256" x2="40.64" y2="25.6032" width="0.2032" layer="16"/>
<wire x1="38.2016" y1="4.4704" x2="38.354" y2="4.318" width="0.2032" layer="1"/>
<wire x1="42.0624" y1="27.0256" x2="42.086" y2="27.112" width="0.2032" layer="16"/>
<wire x1="11.3792" y1="22.9616" x2="11.3792" y2="33.1216" width="0.2032" layer="16"/>
<wire x1="6.2992" y1="17.8816" x2="11.3792" y2="22.9616" width="0.2032" layer="16"/>
<wire x1="6.2992" y1="17.0688" x2="6.2992" y2="17.8816" width="0.2032" layer="16"/>
<wire x1="20.1168" y1="3.2512" x2="6.2992" y2="17.0688" width="0.2032" layer="16"/>
<wire x1="37.1856" y1="3.2512" x2="20.1168" y2="3.2512" width="0.2032" layer="16"/>
<wire x1="38.2016" y1="4.2672" x2="37.1856" y2="3.2512" width="0.2032" layer="16"/>
<wire x1="11.3792" y1="33.1216" x2="11.43" y2="33.274" width="0.2032" layer="16"/>
<wire x1="38.2016" y1="4.2672" x2="38.354" y2="4.318" width="0.2032" layer="16"/>
<wire x1="47.1424" y1="32.1056" x2="47.1424" y2="38.2016" width="0.2032" layer="1"/>
<wire x1="42.2656" y1="27.2288" x2="47.1424" y2="32.1056" width="0.2032" layer="1"/>
<wire x1="47.1424" y1="38.2016" x2="47.244" y2="38.354" width="0.2032" layer="1"/>
<wire x1="42.2656" y1="27.2288" x2="42.086" y2="27.112" width="0.2032" layer="1"/>
<via x="40.64" y="24.5872" extent="1-16" drill="0.508"/>
</signal>
<signal name="VIN">
<contactref element="J1" pad="1"/>
<contactref element="U$1" pad="RAW"/>
<contactref element="R4" pad="P$1"/>
<wire x1="42.4688" y1="37.3888" x2="38.4048" y2="37.3888" width="0.2032" layer="1"/>
<wire x1="46.9392" y1="41.8592" x2="42.4688" y2="37.3888" width="0.2032" layer="1"/>
<wire x1="51.4096" y1="41.8592" x2="46.9392" y2="41.8592" width="0.2032" layer="1"/>
<wire x1="52.832" y1="43.2816" x2="51.4096" y2="41.8592" width="0.2032" layer="1"/>
<wire x1="38.4048" y1="37.3888" x2="38.354" y2="37.338" width="0.2032" layer="1"/>
<wire x1="52.832" y1="43.2816" x2="52.832" y2="43.434" width="0.2032" layer="1"/>
<wire x1="22.1488" y1="43.0784" x2="19.1008" y2="43.0784" width="0.2032" layer="1"/>
<wire x1="27.8384" y1="37.3888" x2="22.1488" y2="43.0784" width="0.2032" layer="1"/>
<wire x1="38.2016" y1="37.3888" x2="27.8384" y2="37.3888" width="0.2032" layer="1"/>
<wire x1="19.1008" y1="43.0784" x2="19.05" y2="43.18" width="0.2032" layer="1"/>
<wire x1="38.2016" y1="37.3888" x2="38.354" y2="37.338" width="0.2032" layer="1"/>
</signal>
<signal name="D9">
<contactref element="U$1" pad="D9"/>
<contactref element="BUZZER" pad="+"/>
<wire x1="24.9936" y1="11.3792" x2="23.1648" y2="9.5504" width="0.2032" layer="16"/>
<wire x1="24.9936" y1="32.512" x2="24.9936" y2="11.3792" width="0.2032" layer="16"/>
<wire x1="23.7744" y1="33.7312" x2="24.9936" y2="32.512" width="0.2032" layer="16"/>
<wire x1="21.9456" y1="33.7312" x2="23.7744" y2="33.7312" width="0.2032" layer="16"/>
<wire x1="12.5984" y1="43.0784" x2="21.9456" y2="33.7312" width="0.2032" layer="16"/>
<wire x1="12.5984" y1="44.704" x2="12.5984" y2="43.0784" width="0.2032" layer="16"/>
<wire x1="12.192" y1="45.1104" x2="12.5984" y2="44.704" width="0.2032" layer="16"/>
<wire x1="23.1648" y1="9.5504" x2="23.114" y2="9.398" width="0.2032" layer="16"/>
<wire x1="12.192" y1="45.1104" x2="12.182" y2="45.212" width="0.2032" layer="16"/>
</signal>
<signal name="D3">
<contactref element="U$1" pad="D3"/>
<contactref element="J2" pad="3"/>
<wire x1="15.24" y1="32.512" x2="23.114" y2="24.638" width="0.2032" layer="1"/>
<wire x1="15.24" y1="35.56" x2="15.24" y2="32.512" width="0.2032" layer="1"/>
<wire x1="13.462" y1="37.338" x2="15.24" y2="35.56" width="0.2032" layer="1"/>
</signal>
<signal name="N$1">
<contactref element="R5" pad="1"/>
<contactref element="LDR" pad="2"/>
<contactref element="U$1" pad="A1"/>
<wire x1="40.4368" y1="9.7536" x2="38.4048" y2="11.7856" width="0.2032" layer="16"/>
<wire x1="40.4368" y1="8.5344" x2="40.4368" y2="9.7536" width="0.2032" layer="16"/>
<wire x1="41.4528" y1="7.5184" x2="40.4368" y2="8.5344" width="0.2032" layer="16"/>
<wire x1="42.672" y1="7.5184" x2="41.4528" y2="7.5184" width="0.2032" layer="16"/>
<wire x1="61.3664" y1="26.2128" x2="42.672" y2="7.5184" width="0.2032" layer="16"/>
<wire x1="61.3664" y1="41.0464" x2="61.3664" y2="26.2128" width="0.2032" layer="16"/>
<wire x1="55.4736" y1="46.9392" x2="61.3664" y2="41.0464" width="0.2032" layer="16"/>
<wire x1="38.4048" y1="11.7856" x2="38.354" y2="11.938" width="0.2032" layer="16"/>
<wire x1="55.4736" y1="46.9392" x2="55.372" y2="46.99" width="0.2032" layer="16"/>
<wire x1="36.576" y1="43.2816" x2="30.48" y2="43.2816" width="0.2032" layer="1"/>
<wire x1="37.7952" y1="44.5008" x2="36.576" y2="43.2816" width="0.2032" layer="1"/>
<wire x1="52.0192" y1="44.5008" x2="37.7952" y2="44.5008" width="0.2032" layer="1"/>
<wire x1="54.4576" y1="46.9392" x2="52.0192" y2="44.5008" width="0.2032" layer="1"/>
<wire x1="55.2704" y1="46.9392" x2="54.4576" y2="46.9392" width="0.2032" layer="1"/>
<wire x1="30.48" y1="43.2816" x2="30.48" y2="43.18" width="0.2032" layer="1"/>
<wire x1="55.2704" y1="46.9392" x2="55.372" y2="46.99" width="0.2032" layer="1"/>
</signal>
<signal name="CE">
<contactref element="U$3" pad="5"/>
<contactref element="U$1" pad="D8"/>
<wire x1="13.208" y1="11.9888" x2="22.9616" y2="11.9888" width="0.2032" layer="16"/>
<wire x1="7.7216" y1="17.4752" x2="13.208" y2="11.9888" width="0.2032" layer="16"/>
<wire x1="22.9616" y1="11.9888" x2="23.114" y2="11.938" width="0.2032" layer="16"/>
<wire x1="7.7216" y1="17.4752" x2="7.62" y2="17.526" width="0.2032" layer="16"/>
</signal>
<signal name="I/O">
<contactref element="U$3" pad="6"/>
<contactref element="U$1" pad="D7"/>
<wire x1="13.0048" y1="14.6304" x2="22.9616" y2="14.6304" width="0.2032" layer="16"/>
<wire x1="10.16" y1="17.4752" x2="13.0048" y2="14.6304" width="0.2032" layer="16"/>
<wire x1="22.9616" y1="14.6304" x2="23.114" y2="14.478" width="0.2032" layer="16"/>
<wire x1="10.16" y1="17.4752" x2="10.16" y2="17.526" width="0.2032" layer="16"/>
</signal>
<signal name="SCLK">
<contactref element="U$3" pad="7"/>
<contactref element="U$1" pad="D6"/>
<wire x1="16.256" y1="16.8656" x2="22.9616" y2="16.8656" width="0.2032" layer="16"/>
<wire x1="15.6464" y1="16.256" x2="16.256" y2="16.8656" width="0.2032" layer="16"/>
<wire x1="14.0208" y1="16.256" x2="15.6464" y2="16.256" width="0.2032" layer="16"/>
<wire x1="12.8016" y1="17.4752" x2="14.0208" y2="16.256" width="0.2032" layer="16"/>
<wire x1="22.9616" y1="16.8656" x2="23.114" y2="17.018" width="0.2032" layer="16"/>
<wire x1="12.8016" y1="17.4752" x2="12.7" y2="17.526" width="0.2032" layer="16"/>
</signal>
<signal name="N$12">
<contactref element="U$3" pad="2"/>
<contactref element="Q2" pad="1"/>
<wire x1="12.8016" y1="25.1968" x2="12.8016" y2="28.6512" width="0.2032" layer="1"/>
<wire x1="12.8016" y1="28.6512" x2="12.7" y2="28.702" width="0.2032" layer="1"/>
<wire x1="12.8016" y1="25.1968" x2="12.7" y2="25.146" width="0.2032" layer="1"/>
</signal>
<signal name="N$14">
<contactref element="U$3" pad="3"/>
<contactref element="Q2" pad="2"/>
<wire x1="10.16" y1="25.146" x2="10.16" y2="28.702" width="0.2032" layer="1"/>
</signal>
<signal name="N$17">
<contactref element="U$3" pad="8"/>
<contactref element="U$4" pad="+$2"/>
<wire x1="19.1008" y1="13.6144" x2="19.1008" y2="7.7216" width="0.2032" layer="1"/>
<wire x1="15.24" y1="17.4752" x2="19.1008" y2="13.6144" width="0.2032" layer="1"/>
<wire x1="19.1008" y1="7.7216" x2="19.122" y2="7.62" width="0.2032" layer="1"/>
<wire x1="15.24" y1="17.4752" x2="15.24" y2="17.526" width="0.2032" layer="1"/>
</signal>
</signals>
</board>
</drawing>
<compatibility>
<note version="6.3" minversion="6.2.2" severity="warning">
Since Version 6.2.2 text objects can contain more than one line,
which will not be processed correctly with this version.
</note>
</compatibility>
</eagle>
